dump.vcd
$date
	Sat Dec  9 05:17:08 2023
$end

$version
	Synopsys VCS version R-2020.12-SP1-1_Full64
$end

$timescale
	1ps
$end

$comment Csum: 1 261610146fa80a72 $end


$scope module DMAC_TOP_TB $end

$scope module u_DUT $end
$var wire 1 ! clk $end
$var wire 1 " rst_n $end
$var wire 1 # psel_i $end
$var wire 1 $ penable_i $end
$var wire 12 % paddr_i [11:0] $end
$var wire 1 & pwrite_i $end
$var wire 32 ' pwdata_i [31:0] $end
$var reg 1 ( pready_o $end
$var reg 32 ) prdata_o [31:0] $end
$var reg 1 * pslverr_o $end
$var wire 4 + awid_o [3:0] $end
$var wire 32 , awaddr_o [31:0] $end
$var wire 4 - awlen_o [3:0] $end
$var wire 3 . awsize_o [2:0] $end
$var wire 2 / awburst_o [1:0] $end
$var wire 1 0 awvalid_o $end
$var wire 1 1 awready_i $end
$var wire 4 2 wid_o [3:0] $end
$var wire 32 3 wdata_o [31:0] $end
$var wire 4 4 wstrb_o [3:0] $end
$var wire 1 5 wlast_o $end
$var wire 1 6 wvalid_o $end
$var wire 1 7 wready_i $end
$var wire 4 8 bid_i [3:0] $end
$var wire 2 9 bresp_i [1:0] $end
$var wire 1 : bvalid_i $end
$var wire 1 ; bready_o $end
$var wire 4 < arid_o [3:0] $end
$var wire 32 = araddr_o [31:0] $end
$var wire 4 > arlen_o [3:0] $end
$var wire 3 ? arsize_o [2:0] $end
$var wire 2 @ arburst_o [1:0] $end
$var wire 1 A arvalid_o $end
$var wire 1 B arready_i $end
$var wire 4 C rid_i [3:0] $end
$var wire 32 D rdata_i [31:0] $end
$var wire 2 E rresp_i [1:0] $end
$var wire 1 F rlast_i $end
$var wire 1 G rvalid_i $end
$var wire 1 H rready_o $end
$var wire 1 I aw_arb2fifo_valid $end
$var wire 1 J aw_arb2fifo_ready $end
$var wire 4 K aw_arb2fifo_id [3:0] $end
$var wire 32 L aw_arb2fifo_addr [31:0] $end
$var wire 4 M aw_arb2fifo_len [3:0] $end
$var wire 3 N aw_arb2fifo_size [2:0] $end
$var wire 2 O aw_arb2fifo_burst [1:0] $end
$var wire 1 P aw_fifo_full $end
$var wire 1 Q aw_fifo_empty $end
$var wire 1 R data_fifo_full $end
$var wire 1 S data_fifo_empty $end

$scope module u_cfg $end
$var wire 1 ! clk $end
$var wire 1 " rst_n $end
$var wire 1 # psel_i $end
$var wire 1 $ penable_i $end
$var wire 12 % paddr_i [11:0] $end
$var wire 1 & pwrite_i $end
$var wire 32 ' pwdata_i [31:0] $end
$var reg 1 T pready_o $end
$var reg 32 U prdata_o [31:0] $end
$var reg 32 V ch0_src_addr_o [31:0] $end
$var reg 32 W ch0_dst_addr_o [31:0] $end
$var reg 16 X ch0_byte_len_o [15:0] $end
$var wire 1 Y ch0_start_o $end
$var wire 1 Z ch0_done_i $end
$var reg 32 [ ch1_src_addr_o [31:0] $end
$var reg 32 \ ch1_dst_addr_o [31:0] $end
$var reg 16 ] ch1_byte_len_o [15:0] $end
$var wire 1 ^ ch1_start_o $end
$var wire 1 _ ch1_done_i $end
$var reg 32 ` ch2_src_addr_o [31:0] $end
$var reg 32 a ch2_dst_addr_o [31:0] $end
$var reg 16 b ch2_byte_len_o [15:0] $end
$var wire 1 c ch2_start_o $end
$var wire 1 d ch2_done_i $end
$var reg 32 e ch3_src_addr_o [31:0] $end
$var reg 32 f ch3_dst_addr_o [31:0] $end
$var reg 16 g ch3_byte_len_o [15:0] $end
$var wire 1 h ch3_start_o $end
$var wire 1 i ch3_done_i $end
$var reg 32 j ch0_src_addr [31:0] $end
$var reg 32 k ch0_dst_addr [31:0] $end
$var reg 16 l ch0_byte_len [15:0] $end
$var reg 32 m ch1_src_addr [31:0] $end
$var reg 32 n ch1_dst_addr [31:0] $end
$var reg 16 o ch1_byte_len [15:0] $end
$var reg 32 p ch2_src_addr [31:0] $end
$var reg 32 q ch2_dst_addr [31:0] $end
$var reg 16 r ch2_byte_len [15:0] $end
$var reg 32 s ch3_src_addr [31:0] $end
$var reg 32 t ch3_dst_addr [31:0] $end
$var reg 16 u ch3_byte_len [15:0] $end
$var wire 1 v wren $end
$var wire 1 w ch0_start $end
$var wire 1 x ch1_start $end
$var wire 1 y ch2_start $end
$var wire 1 z ch3_start $end
$var reg 32 { rdata [31:0] $end
$upscope $end


$scope module u_ar_arbiter $end
$var wire 1 ! clk $end
$var wire 1 " rst_n $end
$var reg 1 | dst_valid_o $end
$var wire 1 B dst_ready_i $end
$var reg 45 } dst_data_o [44:0] $end
$var reg 2 ~ rotate_ptr [1:0] $end

$scope begin unnamed$$_0 $end
$upscope $end


$scope begin unnamed$$_1 $end
$upscope $end

$upscope $end


$scope module u_aw_arbiter $end
$var wire 1 ! clk $end
$var wire 1 " rst_n $end
$var reg 1 "! dst_valid_o $end
$var wire 1 J dst_ready_i $end
$var reg 45 "" dst_data_o [44:0] $end
$var reg 2 "# rotate_ptr [1:0] $end

$scope begin unnamed$$_0 $end
$upscope $end


$scope begin unnamed$$_1 $end
$upscope $end

$upscope $end


$scope module aw_fifo $end
$var wire 1 ! clk $end
$var wire 1 " rst_n $end
$var wire 1 P full_o $end
$var wire 1 "$ wren_i $end
$var wire 45 "% wdata_i [44:0] $end
$var wire 1 Q empty_o $end
$var wire 1 "& rden_i $end
$var wire 45 "' rdata_o [44:0] $end
$var reg 1 "( full $end
$var reg 1 ") full_n $end
$var reg 1 "* empty $end
$var reg 1 "+ empty_n $end
$var reg 3 ", wrptr [2:0] $end
$var reg 3 "- wrptr_n [2:0] $end
$var reg 3 ". rdptr [2:0] $end
$var reg 3 "/ rdptr_n [2:0] $end

$scope begin unnamed$$_0 $end
$upscope $end

$upscope $end


$scope module data_fifo $end
$var wire 1 ! clk $end
$var wire 1 " rst_n $end
$var wire 1 R full_o $end
$var wire 1 "0 wren_i $end
$var wire 37 "1 wdata_i [36:0] $end
$var wire 1 S empty_o $end
$var wire 1 "2 rden_i $end
$var wire 37 "3 rdata_o [36:0] $end
$var reg 1 "4 full $end
$var reg 1 "5 full_n $end
$var reg 1 "6 empty $end
$var reg 1 "7 empty_n $end
$var reg 3 "8 wrptr [2:0] $end
$var reg 3 "9 wrptr_n [2:0] $end
$var reg 3 ": rdptr [2:0] $end
$var reg 3 "; rdptr_n [2:0] $end

$scope begin unnamed$$_0 $end
$upscope $end

$upscope $end


$scope module channel[0].u_initiator $end
$var wire 1 ! clk $end
$var wire 1 " rst_n $end
$var wire 32 "< src_addr_i [31:0] $end
$var wire 32 "= dst_addr_i [31:0] $end
$var wire 16 "> byte_len_i [15:0] $end
$var wire 1 Y start_i $end
$var wire 1 Z done_o $end
$var wire 32 "? aw_fifo_addr_o [31:0] $end
$var wire 1 "@ aw_fifo_valid_o $end
$var wire 1 "A aw_fifo_ready_i $end
$var wire 4 "B aw_fifo_len_o [3:0] $end
$var wire 3 "C aw_fifo_size_o [2:0] $end
$var wire 2 "D aw_fifo_burst_o [1:0] $end
$var wire 4 "E wstrb_o [3:0] $end
$var wire 2 9 bresp_i [1:0] $end
$var wire 1 "F bvalid_i $end
$var wire 1 "G bready_o $end
$var wire 32 "H araddr_o [31:0] $end
$var wire 4 "I arlen_o [3:0] $end
$var wire 3 "J arsize_o [2:0] $end
$var wire 2 "K arburst_o [1:0] $end
$var wire 1 "L arvalid_o $end
$var wire 1 "M arready_i $end
$var reg 3 "N state [2:0] $end
$var reg 3 "O state_n [2:0] $end
$var reg 16 "P outstanding_wr_cnt [15:0] $end
$var reg 16 "Q outstanding_wr_cnt_n [15:0] $end
$var reg 32 "R src_addr [31:0] $end
$var reg 32 "S src_addr_n [31:0] $end
$var reg 32 "T dst_addr [31:0] $end
$var reg 32 "U dst_addr_n [31:0] $end
$var reg 16 "V cnt [15:0] $end
$var reg 16 "W cnt_n [15:0] $end
$var reg 4 "X wcnt [3:0] $end
$var reg 4 "Y wcnt_n [3:0] $end
$var reg 1 "Z arvalid $end
$var reg 1 "[ done $end
$var reg 1 "\ aw_fifo_valid $end
$var reg 1 "] aw_fifo_ready $end
$var wire 1 "^ outstanding_wr_inc $end
$var wire 1 "_ outstanding_wr_dec $end
$upscope $end


$scope module channel[1].u_initiator $end
$var wire 1 ! clk $end
$var wire 1 " rst_n $end
$var wire 32 "` src_addr_i [31:0] $end
$var wire 32 "a dst_addr_i [31:0] $end
$var wire 16 "b byte_len_i [15:0] $end
$var wire 1 ^ start_i $end
$var wire 1 _ done_o $end
$var wire 32 "c aw_fifo_addr_o [31:0] $end
$var wire 1 "d aw_fifo_valid_o $end
$var wire 1 "e aw_fifo_ready_i $end
$var wire 4 "f aw_fifo_len_o [3:0] $end
$var wire 3 "g aw_fifo_size_o [2:0] $end
$var wire 2 "h aw_fifo_burst_o [1:0] $end
$var wire 4 "i wstrb_o [3:0] $end
$var wire 2 9 bresp_i [1:0] $end
$var wire 1 "j bvalid_i $end
$var wire 1 "k bready_o $end
$var wire 32 "l araddr_o [31:0] $end
$var wire 4 "m arlen_o [3:0] $end
$var wire 3 "n arsize_o [2:0] $end
$var wire 2 "o arburst_o [1:0] $end
$var wire 1 "p arvalid_o $end
$var wire 1 "q arready_i $end
$var reg 3 "r state [2:0] $end
$var reg 3 "s state_n [2:0] $end
$var reg 16 "t outstanding_wr_cnt [15:0] $end
$var reg 16 "u outstanding_wr_cnt_n [15:0] $end
$var reg 32 "v src_addr [31:0] $end
$var reg 32 "w src_addr_n [31:0] $end
$var reg 32 "x dst_addr [31:0] $end
$var reg 32 "y dst_addr_n [31:0] $end
$var reg 16 "z cnt [15:0] $end
$var reg 16 "{ cnt_n [15:0] $end
$var reg 4 "| wcnt [3:0] $end
$var reg 4 "} wcnt_n [3:0] $end
$var reg 1 "~ arvalid $end
$var reg 1 #! done $end
$var reg 1 #" aw_fifo_valid $end
$var reg 1 ## aw_fifo_ready $end
$var wire 1 #$ outstanding_wr_inc $end
$var wire 1 #% outstanding_wr_dec $end
$upscope $end


$scope module channel[2].u_initiator $end
$var wire 1 ! clk $end
$var wire 1 " rst_n $end
$var wire 32 #& src_addr_i [31:0] $end
$var wire 32 #' dst_addr_i [31:0] $end
$var wire 16 #( byte_len_i [15:0] $end
$var wire 1 c start_i $end
$var wire 1 d done_o $end
$var wire 32 #) aw_fifo_addr_o [31:0] $end
$var wire 1 #* aw_fifo_valid_o $end
$var wire 1 #+ aw_fifo_ready_i $end
$var wire 4 #, aw_fifo_len_o [3:0] $end
$var wire 3 #- aw_fifo_size_o [2:0] $end
$var wire 2 #. aw_fifo_burst_o [1:0] $end
$var wire 4 #/ wstrb_o [3:0] $end
$var wire 2 9 bresp_i [1:0] $end
$var wire 1 #0 bvalid_i $end
$var wire 1 #1 bready_o $end
$var wire 32 #2 araddr_o [31:0] $end
$var wire 4 #3 arlen_o [3:0] $end
$var wire 3 #4 arsize_o [2:0] $end
$var wire 2 #5 arburst_o [1:0] $end
$var wire 1 #6 arvalid_o $end
$var wire 1 #7 arready_i $end
$var reg 3 #8 state [2:0] $end
$var reg 3 #9 state_n [2:0] $end
$var reg 16 #: outstanding_wr_cnt [15:0] $end
$var reg 16 #; outstanding_wr_cnt_n [15:0] $end
$var reg 32 #< src_addr [31:0] $end
$var reg 32 #= src_addr_n [31:0] $end
$var reg 32 #> dst_addr [31:0] $end
$var reg 32 #? dst_addr_n [31:0] $end
$var reg 16 #@ cnt [15:0] $end
$var reg 16 #A cnt_n [15:0] $end
$var reg 4 #B wcnt [3:0] $end
$var reg 4 #C wcnt_n [3:0] $end
$var reg 1 #D arvalid $end
$var reg 1 #E done $end
$var reg 1 #F aw_fifo_valid $end
$var reg 1 #G aw_fifo_ready $end
$var wire 1 #H outstanding_wr_inc $end
$var wire 1 #I outstanding_wr_dec $end
$upscope $end


$scope module channel[3].u_initiator $end
$var wire 1 ! clk $end
$var wire 1 " rst_n $end
$var wire 32 #J src_addr_i [31:0] $end
$var wire 32 #K dst_addr_i [31:0] $end
$var wire 16 #L byte_len_i [15:0] $end
$var wire 1 h start_i $end
$var wire 1 i done_o $end
$var wire 32 #M aw_fifo_addr_o [31:0] $end
$var wire 1 #N aw_fifo_valid_o $end
$var wire 1 #O aw_fifo_ready_i $end
$var wire 4 #P aw_fifo_len_o [3:0] $end
$var wire 3 #Q aw_fifo_size_o [2:0] $end
$var wire 2 #R aw_fifo_burst_o [1:0] $end
$var wire 4 #S wstrb_o [3:0] $end
$var wire 2 9 bresp_i [1:0] $end
$var wire 1 #T bvalid_i $end
$var wire 1 #U bready_o $end
$var wire 32 #V araddr_o [31:0] $end
$var wire 4 #W arlen_o [3:0] $end
$var wire 3 #X arsize_o [2:0] $end
$var wire 2 #Y arburst_o [1:0] $end
$var wire 1 #Z arvalid_o $end
$var wire 1 #[ arready_i $end
$var reg 3 #\ state [2:0] $end
$var reg 3 #] state_n [2:0] $end
$var reg 16 #^ outstanding_wr_cnt [15:0] $end
$var reg 16 #_ outstanding_wr_cnt_n [15:0] $end
$var reg 32 #` src_addr [31:0] $end
$var reg 32 #a src_addr_n [31:0] $end
$var reg 32 #b dst_addr [31:0] $end
$var reg 32 #c dst_addr_n [31:0] $end
$var reg 16 #d cnt [15:0] $end
$var reg 16 #e cnt_n [15:0] $end
$var reg 4 #f wcnt [3:0] $end
$var reg 4 #g wcnt_n [3:0] $end
$var reg 1 #h arvalid $end
$var reg 1 #i done $end
$var reg 1 #j aw_fifo_valid $end
$var reg 1 #k aw_fifo_ready $end
$var wire 1 #l outstanding_wr_inc $end
$var wire 1 #m outstanding_wr_dec $end
$upscope $end

$upscope $end

$upscope $end

$enddefinitions $end

#0
$dumpvars
0I
xP
0w
0x
0y
0z
x"6
x"7
x"4
x"5
0"2
0"0
x"*
x"+
x"(
x")
0"&
0v
0"$
bxxxxxxxxxxxxxxxx l
bxxxxxxxxxxxxxxxx X
bxxxxxxxxxxxxxxxxxxxxxxxxxxxxxxxx k
bxxxxxxxxxxxxxxxxxxxxxxxxxxxxxxxx W
bxxxxxxxxxxxxxxxxxxxxxxxxxxxxxxxx j
bxxxxxxxxxxxxxxxxxxxxxxxxxxxxxxxx V
bxxxxxxxxxxxxxxxx o
bxxxxxxxxxxxxxxxx ]
bxxxxxxxxxxxxxxxxxxxxxxxxxxxxxxxx n
bxxxxxxxxxxxxxxxxxxxxxxxxxxxxxxxx \
bxxxxxxxxxxxxxxxxxxxxxxxxxxxxxxxx m
bxxxxxxxxxxxxxxxxxxxxxxxxxxxxxxxx [
bxxxxxxxxxxxxxxxx r
bxxxxxxxxxxxxxxxx b
bxxxxxxxxxxxxxxxxxxxxxxxxxxxxxxxx q
bxxxxxxxxxxxxxxxxxxxxxxxxxxxxxxxx a
bxxxxxxxxxxxxxxxxxxxxxxxxxxxxxxxx p
bxxxxxxxxxxxxxxxxxxxxxxxxxxxxxxxx `
bxxxxxxxxxxxxxxxx u
bxxxxxxxxxxxxxxxx g
bxxxxxxxxxxxxxxxxxxxxxxxxxxxxxxxx t
bxxxxxxxxxxxxxxxxxxxxxxxxxxxxxxxx f
bxxxxxxxxxxxxxxxxxxxxxxxxxxxxxxxx s
bxxxxxxxxxxxxxxxxxxxxxxxxxxxxxxxx e
bxxx ":
bxxx ";
bxxx "8
bxxx "9
bxxxxxxxxxxxxxxxxxxxxxxxxxxxxxxxx )
bxxxxxxxxxxxxxxxxxxxxxxxxxxxxxxxx {
bxxx ".
bxxx "/
bxxxxxxxxxxxxxxxxxxxxxxxxxxxxxxxx U
bxxx ",
bxxx "-
0|
bxxxxxxxxxxxxxxxxxxxxxxxxxxxxxxxxxxxxxxxxxxxxx }
bxx ~
0"!
bxxxxxxxxxxxxxxxxxxxxxxxxxxxxxxxxxxxxxxxxxxxxx ""
bxx "#
0"Z
0"\
0"[
0"_
0"^
bxxxxxxxxxxxxxxxx "V
bxxxxxxxxxxxxxxxx "W
bxxxxxxxxxxxxxxxxxxxxxxxxxxxxxxxx "T
bxxxxxxxxxxxxxxxxxxxxxxxxxxxxxxxx "U
bxxxxxxxxxxxxxxxx "P
bxxxxxxxxxxxxxxxx "Q
bxxxxxxxxxxxxxxxxxxxxxxxxxxxxxxxx "R
bxxxxxxxxxxxxxxxxxxxxxxxxxxxxxxxx "S
bxxx "N
bxxx "O
bxxxx "X
bxxxx "Y
0"~
0#"
0#!
0#%
0#$
bxxxxxxxxxxxxxxxx "z
bxxxxxxxxxxxxxxxx "{
bxxxxxxxxxxxxxxxxxxxxxxxxxxxxxxxx "x
bxxxxxxxxxxxxxxxxxxxxxxxxxxxxxxxx "y
bxxxxxxxxxxxxxxxx "t
bxxxxxxxxxxxxxxxx "u
bxxxxxxxxxxxxxxxxxxxxxxxxxxxxxxxx "v
bxxxxxxxxxxxxxxxxxxxxxxxxxxxxxxxx "w
bxxx "r
bxxx "s
bxxxx "|
bxxxx "}
0#D
0#F
0#E
0#I
0#H
bxxxxxxxxxxxxxxxx #@
bxxxxxxxxxxxxxxxx #A
bxxxxxxxxxxxxxxxxxxxxxxxxxxxxxxxx #>
bxxxxxxxxxxxxxxxxxxxxxxxxxxxxxxxx #?
bxxxxxxxxxxxxxxxx #:
bxxxxxxxxxxxxxxxx #;
bxxxxxxxxxxxxxxxxxxxxxxxxxxxxxxxx #<
bxxxxxxxxxxxxxxxxxxxxxxxxxxxxxxxx #=
bxxx #8
bxxx #9
bxxxx #B
bxxxx #C
0#h
0#j
0#i
0#m
0#l
bxxxxxxxxxxxxxxxx #d
bxxxxxxxxxxxxxxxx #e
bxxxxxxxxxxxxxxxxxxxxxxxxxxxxxxxx #b
bxxxxxxxxxxxxxxxxxxxxxxxxxxxxxxxx #c
bxxxxxxxxxxxxxxxx #^
bxxxxxxxxxxxxxxxx #_
bxxxxxxxxxxxxxxxxxxxxxxxxxxxxxxxx #`
bxxxxxxxxxxxxxxxxxxxxxxxxxxxxxxxx #a
bxxx #\
bxxx #]
bxxxx #f
bxxxx #g
bxxxx +
bxxxxxxxxxxxxxxxxxxxxxxxxxxxxxxxx ,
bxxxx -
bxxx .
bxx /
bxxxx 2
bxxxxxxxxxxxxxxxxxxxxxxxxxxxxxxxx 3
bxxxx <
bxxxxxxxxxxxxxxxxxxxxxxxxxxxxxxxx =
bxxxx >
bxxx ?
bxx @
x5
bxxxxxxxxxxxxxxxxxxxxxxxxxxxxxxxxxxxx0 "1
0!
1T
1(
xQ
xS
xR
0*
1;
0"
b000000000000 %
b00000000000000000000000000000000 '
bzzzz 4
bxxxx 8
b00 9
bxxxx C
bxxxxxxxxxxxxxxxxxxxxxxxxxxxxxxxx D
b00 E
0#
0$
0&
x0
01
x6
07
0:
0A
0B
0F
0G
xH
bxxxxxxxxxxxxxxxxxxxxxxxxxxxxxxxxxxxxxxxxxxxxx "%
bxxxxxxxxxxxxxxxxxxxxxxxxxxxxxxxxxxxxxxxxxxxxx "'
bxxxxxxxxxxxxxxxxxxxxxxxxxxxxxxxxxxxxx "3
bxxxxxxxxxxxxxxxxxxxxxxxxxxxxxxxx "<
bxxxxxxxxxxxxxxxxxxxxxxxxxxxxxxxx "=
bxxxxxxxxxxxxxxxx ">
bxxxxxxxxxxxxxxxxxxxxxxxxxxxxxxxx "?
x"A
bxxxx "B
b010 "C
b01 "D
1"G
bxxxxxxxxxxxxxxxxxxxxxxxxxxxxxxxx "H
bxxxx "I
b010 "J
b01 "K
x"M
bxxxxxxxxxxxxxxxxxxxxxxxxxxxxxxxx "`
bxxxxxxxxxxxxxxxxxxxxxxxxxxxxxxxx "a
bxxxxxxxxxxxxxxxx "b
bxxxxxxxxxxxxxxxxxxxxxxxxxxxxxxxx "c
x"e
bxxxx "f
b010 "g
b01 "h
1"k
bxxxxxxxxxxxxxxxxxxxxxxxxxxxxxxxx "l
bxxxx "m
b010 "n
b01 "o
x"q
bxxxxxxxxxxxxxxxxxxxxxxxxxxxxxxxx #&
bxxxxxxxxxxxxxxxxxxxxxxxxxxxxxxxx #'
bxxxxxxxxxxxxxxxx #(
bxxxxxxxxxxxxxxxxxxxxxxxxxxxxxxxx #)
x#+
bxxxx #,
b010 #-
b01 #.
1#1
bxxxxxxxxxxxxxxxxxxxxxxxxxxxxxxxx #2
bxxxx #3
b010 #4
b01 #5
x#7
bxxxxxxxxxxxxxxxxxxxxxxxxxxxxxxxx #J
bxxxxxxxxxxxxxxxxxxxxxxxxxxxxxxxx #K
bxxxxxxxxxxxxxxxx #L
bxxxxxxxxxxxxxxxxxxxxxxxxxxxxxxxx #M
x#O
bxxxx #P
b010 #Q
b01 #R
1#U
bxxxxxxxxxxxxxxxxxxxxxxxxxxxxxxxx #V
bxxxx #W
b010 #X
b01 #Y
x#[
0"F
0"j
0#0
0#T
bxxxx K
bxxxxxxxxxxxxxxxxxxxxxxxxxxxxxxxx L
bxxxx M
bxxx N
bxx O
0Y
0^
0c
0h
0Z
0_
0d
0i
0"@
b1111 "E
0"L
0"d
b1111 "i
0"p
0#*
b1111 #/
0#6
0#N
b1111 #S
0#Z
zJ
0"]
0##
0#G
0#k
$end
#10000
1!
b0000 8
b0000 C
0"(
0P
1"*
1Q
00
b000 ",
b000 ".
b000000000000000000000000000000000000000000000 "'
b00 /
b000 .
b0000 -
b0000 +
b00000000000000000000000000000000 ,
0"4
0R
1H
1"6
1S
06
b000 "8
b000 ":
b0000000000000000000000000000000000000 "3
05
b0000 2
b00000000000000000000000000000000 3
b00000000000000000000000000000000 j
b00000000000000000000000000000000 V
b00000000000000000000000000000000 "<
b00000000000000000000000000000000 k
b00000000000000000000000000000000 W
b00000000000000000000000000000000 "=
b0000000000000000 l
b0000000000000000 X
b0000000000000000 ">
b00000000000000000000000000000000 m
b00000000000000000000000000000000 [
b00000000000000000000000000000000 "`
b00000000000000000000000000000000 n
b00000000000000000000000000000000 \
b00000000000000000000000000000000 "a
b0000000000000000 o
b0000000000000000 ]
b0000000000000000 "b
b00000000000000000000000000000000 p
b00000000000000000000000000000000 `
b00000000000000000000000000000000 #&
b00000000000000000000000000000000 q
b00000000000000000000000000000000 a
b00000000000000000000000000000000 #'
b0000000000000000 r
b0000000000000000 b
b0000000000000000 #(
b00000000000000000000000000000000 s
b00000000000000000000000000000000 e
b00000000000000000000000000000000 #J
b00000000000000000000000000000000 t
b00000000000000000000000000000000 f
b00000000000000000000000000000000 #K
b0000000000000000 u
b0000000000000000 g
b0000000000000000 #L
b00000000000000000000000000000000 {
b00000000000000000000000000000000 U
b00000000000000000000000000000000 )
b00 ~
b00 "#
b000 "N
b0000000000000000 "P
b00000000000000000000000000000000 "R
b00000000000000000000000000000000 "H
b00000000000000000000000000000000 "T
b00000000000000000000000000000000 "?
b0000000000000000 "V
b1111 "I
b1111 "B
b0000 "X
b000 "r
b0000000000000000 "t
b00000000000000000000000000000000 "v
b00000000000000000000000000000000 "l
b00000000000000000000000000000000 "x
b00000000000000000000000000000000 "c
b0000000000000000 "z
b1111 "m
b1111 "f
b0000 "|
b000 #8
b0000000000000000 #:
b00000000000000000000000000000000 #<
b00000000000000000000000000000000 #2
b00000000000000000000000000000000 #>
b00000000000000000000000000000000 #)
b0000000000000000 #@
b1111 #3
b1111 #,
b0000 #B
b000 #\
b0000000000000000 #^
b00000000000000000000000000000000 #`
b00000000000000000000000000000000 #V
b00000000000000000000000000000000 #b
b00000000000000000000000000000000 #M
b0000000000000000 #d
b1111 #W
b1111 #P
b0000 #f
b0000xxxxxxxxxxxxxxxxxxxxxxxxxxxxxxxx0 "1
0")
1"+
b000 "/
b000 "-
0"5
1"7
b000 ";
b000 "9
1"[
1Z
b0000 "Y
b0000000000000000 "W
b00000000000000000000000000000000 "U
b00000000000000000000000000000000 "S
b000 "O
1#!
1_
b0000 "}
b0000000000000000 "{
b00000000000000000000000000000000 "y
b00000000000000000000000000000000 "w
b000 "s
1#E
1d
b0000 #C
b0000000000000000 #A
b00000000000000000000000000000000 #?
b00000000000000000000000000000000 #=
b000 #9
1#i
1i
b0000 #g
b0000000000000000 #e
b00000000000000000000000000000000 #c
b00000000000000000000000000000000 #a
b000 #]
0"M
0"q
0#7
0#[
b0000000000000000 "Q
0"A
0"e
0#+
0#O
b0000000000000000 "u
b0000000000000000 #;
b0000000000000000 #_
b0000xxxxxxxxxxxxxxxxxxxxxxxxxxxxxxxxxxxx01001 }
b01 @
b010 ?
b0000 <
bzzzzxxxxxxxxxxxxxxxxxxxxxxxxxxxxxxxxxxxx01001 ""
bzzzzxxxxxxxxxxxxxxxxxxxxxxxxxxxxxxxxxxxx01001 "%
b01 O
b010 N
bzzzz K
b000000000000000000000000000000000000111101001 }
b1111 >
b00000000000000000000000000000000 =
bzzzz00000000000000000000000000000000111101001 ""
bzzzz00000000000000000000000000000000111101001 "%
b1111 M
b00000000000000000000000000000000 L
#20000
0!
#30000
1!
#40000
0!
#50000
1!
1"
#60000
0!
#70000
1!
#80000
0!
#90000
1!
#100000
0!
#110000
1!
#120000
0!
#130000
1!
#140000
0!
#150000
1!
#160000
0!
#170000
1!
#180000
0!
#190000
1!
#200000
0!
#210000
1!
#220000
0!
#230000
1!
#240000
0!
#250000
1!
#251000
1#
bxxxxxxxxxxxxxxxxxxxxxxxxxxxxxxxx '
#260000
0!
#270000
1!
b00000000000000010000000100000001 {
b00000000000000010000000100000001 U
b00000000000000010000000100000001 )
#271000
1$
#280000
0!
#290000
1!
0#
0$
bxxxxxxxxxxxx %
x&
#291000
1#
b000100000000 %
1&
b00000000000000000000000000000000 '
#300000
0!
#310000
1!
#311000
1$
1v
#320000
0!
#330000
1!
0#
0$
bxxxxxxxxxxxx %
x&
bxxxxxxxxxxxxxxxxxxxxxxxxxxxxxxxx '
0v
0z
0y
0x
0w
#331000
1#
b001000000000 %
1&
b00000000000000000000000000000000 '
#340000
0!
#350000
1!
#351000
1$
1v
#360000
0!
#370000
1!
0#
0$
bxxxxxxxxxxxx %
x&
bxxxxxxxxxxxxxxxxxxxxxxxxxxxxxxxx '
0v
0z
0y
0x
0w
#371000
1#
b001100000000 %
1&
b00000000000000000000000000000000 '
#380000
0!
#390000
1!
#391000
1$
1v
#400000
0!
#410000
1!
0#
0$
bxxxxxxxxxxxx %
x&
bxxxxxxxxxxxxxxxxxxxxxxxxxxxxxxxx '
0v
0z
0y
0x
0w
#411000
1#
b010000000000 %
1&
b00000000000000000000000000000000 '
#420000
0!
#430000
1!
#431000
1$
1v
#440000
0!
#450000
1!
0#
0$
bxxxxxxxxxxxx %
x&
bxxxxxxxxxxxxxxxxxxxxxxxxxxxxxxxx '
0v
0z
0y
0x
0w
#451000
1#
b000100000000 %
0&
#460000
0!
#470000
1!
b00000000000000000000000000000000 {
b00000000000000000000000000000000 U
b00000000000000000000000000000000 )
#471000
1$
#480000
0!
#490000
1!
0#
0$
bxxxxxxxxxxxx %
x&
#491000
1#
b001000000000 %
0&
#500000
0!
#510000
1!
#511000
1$
#520000
0!
#530000
1!
0#
0$
bxxxxxxxxxxxx %
x&
#531000
1#
b001100000000 %
0&
#540000
0!
#550000
1!
#551000
1$
#560000
0!
#570000
1!
0#
0$
bxxxxxxxxxxxx %
x&
#571000
1#
b010000000000 %
0&
#580000
0!
#590000
1!
#591000
1$
#600000
0!
#610000
1!
0#
0$
bxxxxxxxxxxxx %
x&
#611000
1#
b000100000100 %
1&
b00000000000000100000000000000000 '
#620000
0!
#630000
1!
#631000
1$
1v
#640000
0!
#650000
1!
0#
0$
bxxxxxxxxxxxx %
x&
bxxxxxxxxxxxxxxxxxxxxxxxxxxxxxxxx '
0v
0z
0y
0x
0w
b00000000000000100000000000000000 k
b00000000000000100000000000000000 W
b00000000000000100000000000000000 "=
#651000
1#
b001000000100 %
1&
b00000000000001000000000000000000 '
#660000
0!
#670000
1!
#671000
1$
1v
#680000
0!
#690000
1!
0#
0$
bxxxxxxxxxxxx %
x&
bxxxxxxxxxxxxxxxxxxxxxxxxxxxxxxxx '
0v
0z
0y
0x
0w
b00000000000001000000000000000000 n
b00000000000001000000000000000000 \
b00000000000001000000000000000000 "a
#691000
1#
b001100000100 %
1&
b00000000000001100000000000000000 '
#700000
0!
#710000
1!
#711000
1$
1v
#720000
0!
#730000
1!
0#
0$
bxxxxxxxxxxxx %
x&
bxxxxxxxxxxxxxxxxxxxxxxxxxxxxxxxx '
0v
0z
0y
0x
0w
b00000000000001100000000000000000 q
b00000000000001100000000000000000 a
b00000000000001100000000000000000 #'
#731000
1#
b010000000100 %
1&
b00000000000010000000000000000000 '
#740000
0!
#750000
1!
#751000
1$
1v
#760000
0!
#770000
1!
0#
0$
bxxxxxxxxxxxx %
x&
bxxxxxxxxxxxxxxxxxxxxxxxxxxxxxxxx '
0v
0z
0y
0x
0w
b00000000000010000000000000000000 t
b00000000000010000000000000000000 f
b00000000000010000000000000000000 #K
#771000
1#
b000100000100 %
0&
#780000
0!
#790000
1!
b00000000000000100000000000000000 {
b00000000000000100000000000000000 U
b00000000000000100000000000000000 )
#791000
1$
#800000
0!
#810000
1!
0#
0$
bxxxxxxxxxxxx %
x&
#811000
1#
b001000000100 %
0&
#820000
0!
#830000
1!
b00000000000001000000000000000000 {
b00000000000001000000000000000000 U
b00000000000001000000000000000000 )
#831000
1$
#840000
0!
#850000
1!
0#
0$
bxxxxxxxxxxxx %
x&
#851000
1#
b001100000100 %
0&
#860000
0!
#870000
1!
b00000000000001100000000000000000 {
b00000000000001100000000000000000 U
b00000000000001100000000000000000 )
#871000
1$
#880000
0!
#890000
1!
0#
0$
bxxxxxxxxxxxx %
x&
#891000
1#
b010000000100 %
0&
#900000
0!
#910000
1!
b00000000000010000000000000000000 {
b00000000000010000000000000000000 U
b00000000000010000000000000000000 )
#911000
1$
#920000
0!
#930000
1!
0#
0$
bxxxxxxxxxxxx %
x&
#931000
1#
b000100001000 %
1&
b00000000000000000000000100000000 '
#940000
0!
#950000
1!
#951000
1$
1v
