dump25.vcd
$date
	Sun Dec 10 03:04:27 2023
$end

$version
	Synopsys VCS version R-2020.12-SP1-1_Full64
$end

$timescale
	1ps
$end

$comment Csum: 1 2f84db624f8f4661 $end


$scope module DMAC_TOP_TB $end

$scope module u_DUT $end
$var wire 1 ! clk $end
$var wire 1 " rst_n $end
$var wire 1 # psel_i $end
$var wire 1 $ penable_i $end
$var wire 12 % paddr_i [11:0] $end
$var wire 1 & pwrite_i $end
$var wire 32 ' pwdata_i [31:0] $end
$var reg 1 ( pready_o $end
$var reg 32 ) prdata_o [31:0] $end
$var reg 1 * pslverr_o $end
$var wire 4 + awid_o [3:0] $end
$var wire 32 , awaddr_o [31:0] $end
$var wire 4 - awlen_o [3:0] $end
$var wire 3 . awsize_o [2:0] $end
$var wire 2 / awburst_o [1:0] $end
$var wire 1 0 awvalid_o $end
$var wire 1 1 awready_i $end
$var wire 4 2 wid_o [3:0] $end
$var wire 32 3 wdata_o [31:0] $end
$var wire 4 4 wstrb_o [3:0] $end
$var wire 1 5 wlast_o $end
$var wire 1 6 wvalid_o $end
$var wire 1 7 wready_i $end
$var wire 4 8 bid_i [3:0] $end
$var wire 2 9 bresp_i [1:0] $end
$var wire 1 : bvalid_i $end
$var wire 1 ; bready_o $end
$var wire 4 < arid_o [3:0] $end
$var wire 32 = araddr_o [31:0] $end
$var wire 4 > arlen_o [3:0] $end
$var wire 3 ? arsize_o [2:0] $end
$var wire 2 @ arburst_o [1:0] $end
$var wire 1 A arvalid_o $end
$var wire 1 B arready_i $end
$var wire 4 C rid_i [3:0] $end
$var wire 32 D rdata_i [31:0] $end
$var wire 2 E rresp_i [1:0] $end
$var wire 1 F rlast_i $end
$var wire 1 G rvalid_i $end
$var wire 1 H rready_o $end
$var wire 1 I data_fifo_full $end
$var wire 1 J data_fifo_empty $end

$scope module u_cfg $end
$var wire 1 ! clk $end
$var wire 1 " rst_n $end
$var wire 1 # psel_i $end
$var wire 1 $ penable_i $end
$var wire 12 % paddr_i [11:0] $end
$var wire 1 & pwrite_i $end
$var wire 32 ' pwdata_i [31:0] $end
$var reg 1 K pready_o $end
$var reg 32 L prdata_o [31:0] $end
$var reg 32 M ch0_src_addr_o [31:0] $end
$var reg 32 N ch0_dst_addr_o [31:0] $end
$var reg 16 O ch0_byte_len_o [15:0] $end
$var wire 1 P ch0_start_o $end
$var wire 1 Q ch0_done_i $end
$var reg 32 R ch1_src_addr_o [31:0] $end
$var reg 32 S ch1_dst_addr_o [31:0] $end
$var reg 16 T ch1_byte_len_o [15:0] $end
$var wire 1 U ch1_start_o $end
$var wire 1 V ch1_done_i $end
$var reg 32 W ch2_src_addr_o [31:0] $end
$var reg 32 X ch2_dst_addr_o [31:0] $end
$var reg 16 Y ch2_byte_len_o [15:0] $end
$var wire 1 Z ch2_start_o $end
$var wire 1 [ ch2_done_i $end
$var reg 32 \ ch3_src_addr_o [31:0] $end
$var reg 32 ] ch3_dst_addr_o [31:0] $end
$var reg 16 ^ ch3_byte_len_o [15:0] $end
$var wire 1 _ ch3_start_o $end
$var wire 1 ` ch3_done_i $end
$var reg 32 a ch0_src_addr [31:0] $end
$var reg 32 b ch0_dst_addr [31:0] $end
$var reg 16 c ch0_byte_len [15:0] $end
$var reg 32 d ch1_src_addr [31:0] $end
$var reg 32 e ch1_dst_addr [31:0] $end
$var reg 16 f ch1_byte_len [15:0] $end
$var reg 32 g ch2_src_addr [31:0] $end
$var reg 32 h ch2_dst_addr [31:0] $end
$var reg 16 i ch2_byte_len [15:0] $end
$var reg 32 j ch3_src_addr [31:0] $end
$var reg 32 k ch3_dst_addr [31:0] $end
$var reg 16 l ch3_byte_len [15:0] $end
$var wire 1 m wren $end
$var wire 1 n ch0_start $end
$var wire 1 o ch1_start $end
$var wire 1 p ch2_start $end
$var wire 1 q ch3_start $end
$var reg 32 r rdata [31:0] $end
$upscope $end


$scope module u_ar_arbiter $end
$var wire 1 ! clk $end
$var wire 1 " rst_n $end
$var reg 1 s dst_valid_o $end
$var wire 1 B dst_ready_i $end
$var reg 45 t dst_data_o [44:0] $end
$var reg 2 u rotate_ptr [1:0] $end

$scope begin unnamed$$_0 $end
$upscope $end


$scope begin unnamed$$_1 $end
$upscope $end

$upscope $end


$scope module data_fifo $end
$var wire 1 ! clk $end
$var wire 1 " rst_n $end
$var wire 1 I full_o $end
$var wire 1 v wren_i $end
$var wire 37 w wdata_i [36:0] $end
$var wire 1 J empty_o $end
$var wire 1 x rden_i $end
$var wire 37 y rdata_o [36:0] $end
$var reg 1 z full $end
$var reg 1 { full_n $end
$var reg 1 | empty $end
$var reg 1 } empty_n $end
$var reg 5 ~ wrptr [4:0] $end
$var reg 5 "! wrptr_n [4:0] $end
$var reg 5 "" rdptr [4:0] $end
$var reg 5 "# rdptr_n [4:0] $end

$scope begin unnamed$$_0 $end
$upscope $end

$upscope $end


$scope module channel[0].u_initiator $end
$var wire 1 ! clk $end
$var wire 1 " rst_n $end
$var wire 32 "$ src_addr_i [31:0] $end
$var wire 32 "% dst_addr_i [31:0] $end
$var wire 16 "& byte_len_i [15:0] $end
$var wire 1 P start_i $end
$var wire 1 Q done_o $end
$var wire 32 "' aw_fifo_addr_o [31:0] $end
$var wire 4 "( aw_fifo_len_o [3:0] $end
$var wire 3 ") aw_fifo_size_o [2:0] $end
$var wire 2 "* aw_fifo_burst_o [1:0] $end
$var wire 1 "+ aw_fifo_valid_o $end
$var wire 1 ", aw_fifo_ready_i $end
$var wire 1 "- rlast_i $end
$var wire 4 ". wstrb_o [3:0] $end
$var wire 2 9 bresp_i [1:0] $end
$var wire 1 "/ bvalid_i $end
$var wire 1 "0 bready_o $end
$var wire 32 "1 araddr_o [31:0] $end
$var wire 4 "2 arlen_o [3:0] $end
$var wire 3 "3 arsize_o [2:0] $end
$var wire 2 "4 arburst_o [1:0] $end
$var wire 1 "5 arvalid_o $end
$var wire 1 "6 arready_i $end
$var reg 3 "7 state [2:0] $end
$var reg 3 "8 state_n [2:0] $end
$var reg 16 "9 outstanding_wr_cnt [15:0] $end
$var reg 16 ": outstanding_wr_cnt_n [15:0] $end
$var reg 32 "; src_addr [31:0] $end
$var reg 32 "< src_addr_n [31:0] $end
$var reg 32 "= dst_addr [31:0] $end
$var reg 32 "> dst_addr_n [31:0] $end
$var reg 16 "? cnt [15:0] $end
$var reg 16 "@ cnt_n [15:0] $end
$var reg 16 "A wcnt [15:0] $end
$var reg 16 "B wcnt_n [15:0] $end
$var reg 1 "C arvalid $end
$var reg 1 "D aw_fifo_valid $end
$var reg 1 "E done $end
$var wire 1 "F outstanding_wr_inc $end
$var wire 1 "G outstanding_wr_dec $end
$upscope $end


$scope module channel[0].aw_fifo $end
$var wire 1 ! clk $end
$var wire 1 " rst_n $end
$var wire 1 "H full_o $end
$var wire 1 "I wren_i $end
$var wire 45 "J wdata_i [44:0] $end
$var wire 1 "K empty_o $end
$var wire 1 "L rden_i $end
$var wire 45 "M rdata_o [44:0] $end
$var reg 1 "N full $end
$var reg 1 "O full_n $end
$var reg 1 "P empty $end
$var reg 1 "Q empty_n $end
$var reg 3 "R wrptr [2:0] $end
$var reg 3 "S wrptr_n [2:0] $end
$var reg 3 "T rdptr [2:0] $end
$var reg 3 "U rdptr_n [2:0] $end

$scope begin unnamed$$_0 $end
$upscope $end

$upscope $end


$scope module channel[1].u_initiator $end
$var wire 1 ! clk $end
$var wire 1 " rst_n $end
$var wire 32 "V src_addr_i [31:0] $end
$var wire 32 "W dst_addr_i [31:0] $end
$var wire 16 "X byte_len_i [15:0] $end
$var wire 1 U start_i $end
$var wire 1 V done_o $end
$var wire 32 "Y aw_fifo_addr_o [31:0] $end
$var wire 4 "Z aw_fifo_len_o [3:0] $end
$var wire 3 "[ aw_fifo_size_o [2:0] $end
$var wire 2 "\ aw_fifo_burst_o [1:0] $end
$var wire 1 "] aw_fifo_valid_o $end
$var wire 1 "^ aw_fifo_ready_i $end
$var wire 1 "_ rlast_i $end
$var wire 4 "` wstrb_o [3:0] $end
$var wire 2 9 bresp_i [1:0] $end
$var wire 1 "a bvalid_i $end
$var wire 1 "b bready_o $end
$var wire 32 "c araddr_o [31:0] $end
$var wire 4 "d arlen_o [3:0] $end
$var wire 3 "e arsize_o [2:0] $end
$var wire 2 "f arburst_o [1:0] $end
$var wire 1 "g arvalid_o $end
$var wire 1 "h arready_i $end
$var reg 3 "i state [2:0] $end
$var reg 3 "j state_n [2:0] $end
$var reg 16 "k outstanding_wr_cnt [15:0] $end
$var reg 16 "l outstanding_wr_cnt_n [15:0] $end
$var reg 32 "m src_addr [31:0] $end
$var reg 32 "n src_addr_n [31:0] $end
$var reg 32 "o dst_addr [31:0] $end
$var reg 32 "p dst_addr_n [31:0] $end
$var reg 16 "q cnt [15:0] $end
$var reg 16 "r cnt_n [15:0] $end
$var reg 16 "s wcnt [15:0] $end
$var reg 16 "t wcnt_n [15:0] $end
$var reg 1 "u arvalid $end
$var reg 1 "v aw_fifo_valid $end
$var reg 1 "w done $end
$var wire 1 "x outstanding_wr_inc $end
$var wire 1 "y outstanding_wr_dec $end
$upscope $end


$scope module channel[1].aw_fifo $end
$var wire 1 ! clk $end
$var wire 1 " rst_n $end
$var wire 1 "z full_o $end
$var wire 1 "{ wren_i $end
$var wire 45 "| wdata_i [44:0] $end
$var wire 1 "} empty_o $end
$var wire 1 "~ rden_i $end
$var wire 45 #! rdata_o [44:0] $end
$var reg 1 #" full $end
$var reg 1 ## full_n $end
$var reg 1 #$ empty $end
$var reg 1 #% empty_n $end
$var reg 3 #& wrptr [2:0] $end
$var reg 3 #' wrptr_n [2:0] $end
$var reg 3 #( rdptr [2:0] $end
$var reg 3 #) rdptr_n [2:0] $end

$scope begin unnamed$$_0 $end
$upscope $end

$upscope $end


$scope module channel[2].u_initiator $end
$var wire 1 ! clk $end
$var wire 1 " rst_n $end
$var wire 32 #* src_addr_i [31:0] $end
$var wire 32 #+ dst_addr_i [31:0] $end
$var wire 16 #, byte_len_i [15:0] $end
$var wire 1 Z start_i $end
$var wire 1 [ done_o $end
$var wire 32 #- aw_fifo_addr_o [31:0] $end
$var wire 4 #. aw_fifo_len_o [3:0] $end
$var wire 3 #/ aw_fifo_size_o [2:0] $end
$var wire 2 #0 aw_fifo_burst_o [1:0] $end
$var wire 1 #1 aw_fifo_valid_o $end
$var wire 1 #2 aw_fifo_ready_i $end
$var wire 1 #3 rlast_i $end
$var wire 4 #4 wstrb_o [3:0] $end
$var wire 2 9 bresp_i [1:0] $end
$var wire 1 #5 bvalid_i $end
$var wire 1 #6 bready_o $end
$var wire 32 #7 araddr_o [31:0] $end
$var wire 4 #8 arlen_o [3:0] $end
$var wire 3 #9 arsize_o [2:0] $end
$var wire 2 #: arburst_o [1:0] $end
$var wire 1 #; arvalid_o $end
$var wire 1 #< arready_i $end
$var reg 3 #= state [2:0] $end
$var reg 3 #> state_n [2:0] $end
$var reg 16 #? outstanding_wr_cnt [15:0] $end
$var reg 16 #@ outstanding_wr_cnt_n [15:0] $end
$var reg 32 #A src_addr [31:0] $end
$var reg 32 #B src_addr_n [31:0] $end
$var reg 32 #C dst_addr [31:0] $end
$var reg 32 #D dst_addr_n [31:0] $end
$var reg 16 #E cnt [15:0] $end
$var reg 16 #F cnt_n [15:0] $end
$var reg 16 #G wcnt [15:0] $end
$var reg 16 #H wcnt_n [15:0] $end
$var reg 1 #I arvalid $end
$var reg 1 #J aw_fifo_valid $end
$var reg 1 #K done $end
$var wire 1 #L outstanding_wr_inc $end
$var wire 1 #M outstanding_wr_dec $end
$upscope $end


$scope module channel[2].aw_fifo $end
$var wire 1 ! clk $end
$var wire 1 " rst_n $end
$var wire 1 #N full_o $end
$var wire 1 #O wren_i $end
$var wire 45 #P wdata_i [44:0] $end
$var wire 1 #Q empty_o $end
$var wire 1 #R rden_i $end
$var wire 45 #S rdata_o [44:0] $end
$var reg 1 #T full $end
$var reg 1 #U full_n $end
$var reg 1 #V empty $end
$var reg 1 #W empty_n $end
$var reg 3 #X wrptr [2:0] $end
$var reg 3 #Y wrptr_n [2:0] $end
$var reg 3 #Z rdptr [2:0] $end
$var reg 3 #[ rdptr_n [2:0] $end

$scope begin unnamed$$_0 $end
$upscope $end

$upscope $end


$scope module channel[3].u_initiator $end
$var wire 1 ! clk $end
$var wire 1 " rst_n $end
$var wire 32 #\ src_addr_i [31:0] $end
$var wire 32 #] dst_addr_i [31:0] $end
$var wire 16 #^ byte_len_i [15:0] $end
$var wire 1 _ start_i $end
$var wire 1 ` done_o $end
$var wire 32 #_ aw_fifo_addr_o [31:0] $end
$var wire 4 #` aw_fifo_len_o [3:0] $end
$var wire 3 #a aw_fifo_size_o [2:0] $end
$var wire 2 #b aw_fifo_burst_o [1:0] $end
$var wire 1 #c aw_fifo_valid_o $end
$var wire 1 #d aw_fifo_ready_i $end
$var wire 1 #e rlast_i $end
$var wire 4 #f wstrb_o [3:0] $end
$var wire 2 9 bresp_i [1:0] $end
$var wire 1 #g bvalid_i $end
$var wire 1 #h bready_o $end
$var wire 32 #i araddr_o [31:0] $end
$var wire 4 #j arlen_o [3:0] $end
$var wire 3 #k arsize_o [2:0] $end
$var wire 2 #l arburst_o [1:0] $end
$var wire 1 #m arvalid_o $end
$var wire 1 #n arready_i $end
$var reg 3 #o state [2:0] $end
$var reg 3 #p state_n [2:0] $end
$var reg 16 #q outstanding_wr_cnt [15:0] $end
$var reg 16 #r outstanding_wr_cnt_n [15:0] $end
$var reg 32 #s src_addr [31:0] $end
$var reg 32 #t src_addr_n [31:0] $end
$var reg 32 #u dst_addr [31:0] $end
$var reg 32 #v dst_addr_n [31:0] $end
$var reg 16 #w cnt [15:0] $end
$var reg 16 #x cnt_n [15:0] $end
$var reg 16 #y wcnt [15:0] $end
$var reg 16 #z wcnt_n [15:0] $end
$var reg 1 #{ arvalid $end
$var reg 1 #| aw_fifo_valid $end
$var reg 1 #} done $end
$var wire 1 #~ outstanding_wr_inc $end
$var wire 1 $! outstanding_wr_dec $end
$upscope $end


$scope module channel[3].aw_fifo $end
$var wire 1 ! clk $end
$var wire 1 " rst_n $end
$var wire 1 $" full_o $end
$var wire 1 $# wren_i $end
$var wire 45 $$ wdata_i [44:0] $end
$var wire 1 $% empty_o $end
$var wire 1 $& rden_i $end
$var wire 45 $' rdata_o [44:0] $end
$var reg 1 $( full $end
$var reg 1 $) full_n $end
$var reg 1 $* empty $end
$var reg 1 $+ empty_n $end
$var reg 3 $, wrptr [2:0] $end
$var reg 3 $- wrptr_n [2:0] $end
$var reg 3 $. rdptr [2:0] $end
$var reg 3 $/ rdptr_n [2:0] $end

$scope begin unnamed$$_0 $end
$upscope $end

$upscope $end

$upscope $end

$upscope $end

$enddefinitions $end

#0
$dumpvars
0n
0o
0p
0q
x|
x}
xz
x{
0x
0m
0v
bxxxxxxxxxxxxxxxx c
bxxxxxxxxxxxxxxxx O
bxxxxxxxxxxxxxxxxxxxxxxxxxxxxxxxx b
bxxxxxxxxxxxxxxxxxxxxxxxxxxxxxxxx N
bxxxxxxxxxxxxxxxxxxxxxxxxxxxxxxxx a
bxxxxxxxxxxxxxxxxxxxxxxxxxxxxxxxx M
bxxxxxxxxxxxxxxxx f
bxxxxxxxxxxxxxxxx T
bxxxxxxxxxxxxxxxxxxxxxxxxxxxxxxxx e
bxxxxxxxxxxxxxxxxxxxxxxxxxxxxxxxx S
bxxxxxxxxxxxxxxxxxxxxxxxxxxxxxxxx d
bxxxxxxxxxxxxxxxxxxxxxxxxxxxxxxxx R
bxxxxxxxxxxxxxxxx i
bxxxxxxxxxxxxxxxx Y
bxxxxxxxxxxxxxxxxxxxxxxxxxxxxxxxx h
bxxxxxxxxxxxxxxxxxxxxxxxxxxxxxxxx X
bxxxxxxxxxxxxxxxxxxxxxxxxxxxxxxxx g
bxxxxxxxxxxxxxxxxxxxxxxxxxxxxxxxx W
bxxxxxxxxxxxxxxxx l
bxxxxxxxxxxxxxxxx ^
bxxxxxxxxxxxxxxxxxxxxxxxxxxxxxxxx k
bxxxxxxxxxxxxxxxxxxxxxxxxxxxxxxxx ]
bxxxxxxxxxxxxxxxxxxxxxxxxxxxxxxxx j
bxxxxxxxxxxxxxxxxxxxxxxxxxxxxxxxx \
bxxxxxxxxxxxxxxxxxxxxxxxxxxxxxxxx )
bxxxxxxxxxxxxxxxxxxxxxxxxxxxxxxxx r
bxxxxx ""
bxxxxx "#
bxxxxxxxxxxxxxxxxxxxxxxxxxxxxxxxx L
bxxxxx ~
bxxxxx "!
0s
bxxxxxxxxxxxxxxxxxxxxxxxxxxxxxxxxxxxxxxxxxxxxx t
bxx u
0"C
0"D
0"E
0"G
0"F
bxxxxxxxxxxxxxxxx "?
bxxxxxxxxxxxxxxxx "@
bxxxxxxxxxxxxxxxxxxxxxxxxxxxxxxxx "=
bxxxxxxxxxxxxxxxxxxxxxxxxxxxxxxxx ">
bxxxxxxxxxxxxxxxx "9
bxxxxxxxxxxxxxxxx ":
bxxxxxxxxxxxxxxxxxxxxxxxxxxxxxxxx ";
bxxxxxxxxxxxxxxxxxxxxxxxxxxxxxxxx "<
bxxx "7
bxxx "8
bxxxxxxxxxxxxxxxx "A
bxxxxxxxxxxxxxxxx "B
x"P
x"Q
x"N
x"O
bxxx "T
bxxx "U
bxxx "R
bxxx "S
0"u
0"v
0"w
0"y
0"x
bxxxxxxxxxxxxxxxx "q
bxxxxxxxxxxxxxxxx "r
bxxxxxxxxxxxxxxxxxxxxxxxxxxxxxxxx "o
bxxxxxxxxxxxxxxxxxxxxxxxxxxxxxxxx "p
bxxxxxxxxxxxxxxxx "k
bxxxxxxxxxxxxxxxx "l
bxxxxxxxxxxxxxxxxxxxxxxxxxxxxxxxx "m
bxxxxxxxxxxxxxxxxxxxxxxxxxxxxxxxx "n
bxxx "i
bxxx "j
bxxxxxxxxxxxxxxxx "s
bxxxxxxxxxxxxxxxx "t
x#$
x#%
x#"
x##
bxxx #(
bxxx #)
bxxx #&
bxxx #'
0#I
0#J
0#K
0#M
0#L
bxxxxxxxxxxxxxxxx #E
bxxxxxxxxxxxxxxxx #F
bxxxxxxxxxxxxxxxxxxxxxxxxxxxxxxxx #C
bxxxxxxxxxxxxxxxxxxxxxxxxxxxxxxxx #D
bxxxxxxxxxxxxxxxx #?
bxxxxxxxxxxxxxxxx #@
bxxxxxxxxxxxxxxxxxxxxxxxxxxxxxxxx #A
bxxxxxxxxxxxxxxxxxxxxxxxxxxxxxxxx #B
bxxx #=
bxxx #>
bxxxxxxxxxxxxxxxx #G
bxxxxxxxxxxxxxxxx #H
x#V
x#W
x#T
x#U
bxxx #Z
bxxx #[
bxxx #X
bxxx #Y
0#{
0#|
0#}
0$!
0#~
bxxxxxxxxxxxxxxxx #w
bxxxxxxxxxxxxxxxx #x
bxxxxxxxxxxxxxxxxxxxxxxxxxxxxxxxx #u
bxxxxxxxxxxxxxxxxxxxxxxxxxxxxxxxx #v
bxxxxxxxxxxxxxxxx #q
bxxxxxxxxxxxxxxxx #r
bxxxxxxxxxxxxxxxxxxxxxxxxxxxxxxxx #s
bxxxxxxxxxxxxxxxxxxxxxxxxxxxxxxxx #t
bxxx #o
bxxx #p
bxxxxxxxxxxxxxxxx #y
bxxxxxxxxxxxxxxxx #z
x$*
x$+
x$(
x$)
bxxx $.
bxxx $/
bxxx $,
bxxx $-
bxxxx 2
bxxxxxxxxxxxxxxxxxxxxxxxxxxxxxxxx 3
bxxxx <
bxxxxxxxxxxxxxxxxxxxxxxxxxxxxxxxx =
bxxxx >
bxxx ?
bxx @
x5
bxxxxxxxxxxxxxxxxxxxxxxxxxxxxxxxxxxxx0 w
b0000xxxxxxxxxxxxxxxxxxxxxxxxxxxxxxxxxxxx01001 "J
b0001xxxxxxxxxxxxxxxxxxxxxxxxxxxxxxxxxxxx01001 "|
b0010xxxxxxxxxxxxxxxxxxxxxxxxxxxxxxxxxxxx01001 #P
b0011xxxxxxxxxxxxxxxxxxxxxxxxxxxxxxxxxxxx01001 $$
0!
1K
1(
xJ
xI
0*
1;
0"
b000000000000 %
b00000000000000000000000000000000 '
bxxxx +
bxxxxxxxxxxxxxxxxxxxxxxxxxxxxxxxx ,
bxxxx -
bxxx .
bxx /
b1111 4
bxxxx 8
b00 9
bxxxx C
bxxxxxxxxxxxxxxxxxxxxxxxxxxxxxxxx D
b00 E
0#
0$
0&
x0
01
x6
07
0:
0A
0B
0F
0G
xH
bxxxxxxxxxxxxxxxxxxxxxxxxxxxxxxxxxxxxx y
bxxxxxxxxxxxxxxxxxxxxxxxxxxxxxxxx "$
bxxxxxxxxxxxxxxxxxxxxxxxxxxxxxxxx "%
bxxxxxxxxxxxxxxxx "&
0"+
1"0
bxxxxxxxxxxxxxxxxxxxxxxxxxxxxxxxx "1
bxxxx "2
b010 "3
b01 "4
x"6
x"H
x"K
bxxxxxxxxxxxxxxxxxxxxxxxxxxxxxxxx "V
bxxxxxxxxxxxxxxxxxxxxxxxxxxxxxxxx "W
bxxxxxxxxxxxxxxxx "X
0"]
1"b
bxxxxxxxxxxxxxxxxxxxxxxxxxxxxxxxx "c
bxxxx "d
b010 "e
b01 "f
x"h
x"z
x"}
bxxxxxxxxxxxxxxxxxxxxxxxxxxxxxxxx #*
bxxxxxxxxxxxxxxxxxxxxxxxxxxxxxxxx #+
bxxxxxxxxxxxxxxxx #,
0#1
1#6
bxxxxxxxxxxxxxxxxxxxxxxxxxxxxxxxx #7
bxxxx #8
b010 #9
b01 #:
x#<
x#N
x#Q
bxxxxxxxxxxxxxxxxxxxxxxxxxxxxxxxx #\
bxxxxxxxxxxxxxxxxxxxxxxxxxxxxxxxx #]
bxxxxxxxxxxxxxxxx #^
0#c
1#h
bxxxxxxxxxxxxxxxxxxxxxxxxxxxxxxxx #i
bxxxx #j
b010 #k
b01 #l
x#n
x$"
x$%
0"/
0"-
0"I
x"L
0"a
0"_
0"{
x"~
0#5
0#3
0#O
x#R
0#g
0#e
0$#
x$&
0P
0U
0Z
0_
0Q
0V
0[
0`
bxxxxxxxxxxxxxxxxxxxxxxxxxxxxxxxx "'
bxxxx "(
b010 ")
b01 "*
b1111 ".
0"5
bxxxxxxxxxxxxxxxxxxxxxxxxxxxxxxxxxxxxxxxxxxxxx "M
bxxxxxxxxxxxxxxxxxxxxxxxxxxxxxxxx "Y
bxxxx "Z
b010 "[
b01 "\
b1111 "`
0"g
bxxxxxxxxxxxxxxxxxxxxxxxxxxxxxxxxxxxxxxxxxxxxx #!
bxxxxxxxxxxxxxxxxxxxxxxxxxxxxxxxx #-
bxxxx #.
b010 #/
b01 #0
b1111 #4
0#;
bxxxxxxxxxxxxxxxxxxxxxxxxxxxxxxxxxxxxxxxxxxxxx #S
bxxxxxxxxxxxxxxxxxxxxxxxxxxxxxxxx #_
bxxxx #`
b010 #a
b01 #b
b1111 #f
0#m
bxxxxxxxxxxxxxxxxxxxxxxxxxxxxxxxxxxxxxxxxxxxxx $'
x",
x"^
x#2
x#d
$end
#10000
1!
b0000 8
b0000 C
0z
0I
1H
1|
1J
06
b00000 ~
b00000 ""
b0000000000000000000000000000000000000 y
05
b0000 2
b00000000000000000000000000000000 3
b00000000000000000000000000000000 a
b00000000000000000000000000000000 M
b00000000000000000000000000000000 "$
b00000000000000000000000000000000 b
b00000000000000000000000000000000 N
b00000000000000000000000000000000 "%
b0000000000000000 c
b0000000000000000 O
b0000000000000000 "&
b00000000000000000000000000000000 d
b00000000000000000000000000000000 R
b00000000000000000000000000000000 "V
b00000000000000000000000000000000 e
b00000000000000000000000000000000 S
b00000000000000000000000000000000 "W
b0000000000000000 f
b0000000000000000 T
b0000000000000000 "X
b00000000000000000000000000000000 g
b00000000000000000000000000000000 W
b00000000000000000000000000000000 #*
b00000000000000000000000000000000 h
b00000000000000000000000000000000 X
b00000000000000000000000000000000 #+
b0000000000000000 i
b0000000000000000 Y
b0000000000000000 #,
b00000000000000000000000000000000 j
b00000000000000000000000000000000 \
b00000000000000000000000000000000 #\
b00000000000000000000000000000000 k
b00000000000000000000000000000000 ]
b00000000000000000000000000000000 #]
b0000000000000000 l
b0000000000000000 ^
b0000000000000000 #^
b00000000000000000000000000000000 r
b00000000000000000000000000000000 L
b00000000000000000000000000000000 )
b00 u
b000 "7
b0000000000000000 "9
b00000000000000000000000000000000 ";
b00000000000000000000000000000000 "1
b00000000000000000000000000000000 "=
b00000000000000000000000000000000 "'
b0000000000000000 "?
b1111 "2
b1111 "(
b0000000000000000 "A
0"N
0"H
1"P
1"K
0",
0"L
b000 "R
b000 "T
b000 "i
b0000000000000000 "k
b00000000000000000000000000000000 "m
b00000000000000000000000000000000 "c
b00000000000000000000000000000000 "o
b00000000000000000000000000000000 "Y
b0000000000000000 "q
b1111 "d
b1111 "Z
b0000000000000000 "s
0#"
0"z
1#$
1"}
0"^
0"~
b000 #&
b000 #(
b000 #=
b0000000000000000 #?
b00000000000000000000000000000000 #A
b00000000000000000000000000000000 #7
b00000000000000000000000000000000 #C
b00000000000000000000000000000000 #-
b0000000000000000 #E
b1111 #8
b1111 #.
b0000000000000000 #G
0#T
0#N
1#V
1#Q
0#2
0#R
b000 #X
b000 #Z
b000 #o
b0000000000000000 #q
b00000000000000000000000000000000 #s
b00000000000000000000000000000000 #i
b00000000000000000000000000000000 #u
b00000000000000000000000000000000 #_
b0000000000000000 #w
b1111 #j
b1111 #`
b0000000000000000 #y
0$(
0$"
1$*
1$%
0#d
0$&
b000 $,
b000 $.
b0000xxxxxxxxxxxxxxxxxxxxxxxxxxxxxxxx0 w
b000000000000000000000000000000000000111101001 "J
b000100000000000000000000000000000000111101001 "|
b001000000000000000000000000000000000111101001 #P
b001100000000000000000000000000000000111101001 $$
0{
1}
b00000 "#
b00000 "!
1"E
1Q
b0000000000000000 "B
b0000000000000000 "@
b00000000000000000000000000000000 ">
b00000000000000000000000000000000 "<
b000 "8
1"w
1V
b0000000000000000 "t
b0000000000000000 "r
b00000000000000000000000000000000 "p
b00000000000000000000000000000000 "n
b000 "j
1#K
1[
b0000000000000000 #H
b0000000000000000 #F
b00000000000000000000000000000000 #D
b00000000000000000000000000000000 #B
b000 #>
1#}
1`
b0000000000000000 #z
b0000000000000000 #x
b00000000000000000000000000000000 #v
b00000000000000000000000000000000 #t
b000 #p
0"6
0"h
0#<
0#n
b0000000000000000 ":
0"O
1"Q
b000 "U
b000 "S
b000000000000000000000000000000000000000000000 "M
b0000000000000000 "l
0##
1#%
b000 #)
b000 #'
b000000000000000000000000000000000000000000000 #!
b0000000000000000 #@
0#U
1#W
b000 #[
b000 #Y
b000000000000000000000000000000000000000000000 #S
b0000000000000000 #r
0$)
1$+
b000 $/
b000 $-
b000000000000000000000000000000000000000000000 $'
b0000xxxxxxxxxxxxxxxxxxxxxxxxxxxxxxxxxxxx01001 t
b01 @
b010 ?
b0000 <
b000000000000000000000000000000000000111101001 t
b1111 >
b00000000000000000000000000000000 =
b00 /
b000 .
b00000000000000000000000000000000 ,
b0000 +
00
b0000 -
#20000
0!
#30000
1!
#40000
0!
#50000
1!
1"
#60000
0!
#70000
1!
#80000
0!
#90000
1!
#100000
0!
#110000
1!
#120000
0!
#130000
1!
#140000
0!
#150000
1!
#160000
0!
#170000
1!
#180000
0!
#190000
1!
#200000
0!
#210000
1!
#220000
0!
#230000
1!
#240000
0!
#250000
1!
#251000
1#
bxxxxxxxxxxxxxxxxxxxxxxxxxxxxxxxx '
#260000
0!
#270000
1!
b00000000000000010000000100000001 r
b00000000000000010000000100000001 L
b00000000000000010000000100000001 )
#271000
1$
#280000
0!
#290000
1!
0#
0$
bxxxxxxxxxxxx %
x&
#291000
1#
b000100000000 %
1&
b00000000000000000000000000000000 '
#300000
0!
#310000
1!
#311000
1$
1m
#320000
0!
#330000
1!
0#
0$
bxxxxxxxxxxxx %
x&
bxxxxxxxxxxxxxxxxxxxxxxxxxxxxxxxx '
0m
0q
0p
0o
0n
#331000
1#
b001000000000 %
1&
b00000000000000000000000000000000 '
#340000
0!
#350000
1!
#351000
1$
1m
#360000
0!
#370000
1!
0#
0$
bxxxxxxxxxxxx %
x&
bxxxxxxxxxxxxxxxxxxxxxxxxxxxxxxxx '
0m
0q
0p
0o
0n
#371000
1#
b001100000000 %
1&
b00000000000000000000000000000000 '
#380000
0!
#390000
1!
#391000
1$
1m
#400000
0!
#410000
1!
0#
0$
bxxxxxxxxxxxx %
x&
bxxxxxxxxxxxxxxxxxxxxxxxxxxxxxxxx '
0m
0q
0p
0o
0n
#411000
1#
b010000000000 %
1&
b00000000000000000000000000000000 '
#420000
0!
#430000
1!
#431000
1$
1m
#440000
0!
#450000
1!
0#
0$
bxxxxxxxxxxxx %
x&
bxxxxxxxxxxxxxxxxxxxxxxxxxxxxxxxx '
0m
0q
0p
0o
0n
#451000
1#
b000100000000 %
0&
#460000
0!
#470000
1!
b00000000000000000000000000000000 r
b00000000000000000000000000000000 L
b00000000000000000000000000000000 )
#471000
1$
#480000
0!
#490000
1!
0#
0$
bxxxxxxxxxxxx %
x&
#491000
1#
b001000000000 %
0&
#500000
0!
#510000
1!
#511000
1$
#520000
0!
#530000
1!
0#
0$
bxxxxxxxxxxxx %
x&
#531000
1#
b001100000000 %
0&
#540000
0!
#550000
1!
#551000
1$
#560000
0!
#570000
1!
0#
0$
bxxxxxxxxxxxx %
x&
#571000
1#
b010000000000 %
0&
#580000
0!
#590000
1!
#591000
1$
#600000
0!
#610000
1!
0#
0$
bxxxxxxxxxxxx %
x&
#611000
1#
b000100000100 %
1&
b00000000000000100000000000000000 '
#620000
0!
#630000
1!
#631000
1$
1m
#640000
0!
