dump23.vcd
$date
	Sun Dec 10 05:19:13 2023
$end

$version
	Synopsys VCS version R-2020.12-SP1-1_Full64
$end

$timescale
	1ps
$end

$comment Csum: 1 2f84db624f8f4661 $end


$scope module DMAC_TOP_TB $end

$scope module u_DUT $end
$var wire 1 ! clk $end
$var wire 1 " rst_n $end
$var wire 1 # psel_i $end
$var wire 1 $ penable_i $end
$var wire 12 % paddr_i [11:0] $end
$var wire 1 & pwrite_i $end
$var wire 32 ' pwdata_i [31:0] $end
$var reg 1 ( pready_o $end
$var reg 32 ) prdata_o [31:0] $end
$var reg 1 * pslverr_o $end
$var wire 4 + awid_o [3:0] $end
$var wire 32 , awaddr_o [31:0] $end
$var wire 4 - awlen_o [3:0] $end
$var wire 3 . awsize_o [2:0] $end
$var wire 2 / awburst_o [1:0] $end
$var wire 1 0 awvalid_o $end
$var wire 1 1 awready_i $end
$var wire 4 2 wid_o [3:0] $end
$var wire 32 3 wdata_o [31:0] $end
$var wire 4 4 wstrb_o [3:0] $end
$var wire 1 5 wlast_o $end
$var wire 1 6 wvalid_o $end
$var wire 1 7 wready_i $end
$var wire 4 8 bid_i [3:0] $end
$var wire 2 9 bresp_i [1:0] $end
$var wire 1 : bvalid_i $end
$var wire 1 ; bready_o $end
$var wire 4 < arid_o [3:0] $end
$var wire 32 = araddr_o [31:0] $end
$var wire 4 > arlen_o [3:0] $end
$var wire 3 ? arsize_o [2:0] $end
$var wire 2 @ arburst_o [1:0] $end
$var wire 1 A arvalid_o $end
$var wire 1 B arready_i $end
$var wire 4 C rid_i [3:0] $end
$var wire 32 D rdata_i [31:0] $end
$var wire 2 E rresp_i [1:0] $end
$var wire 1 F rlast_i $end
$var wire 1 G rvalid_i $end
$var wire 1 H rready_o $end
$var wire 1 I data_fifo_full $end
$var wire 1 J data_fifo_empty $end

$scope module u_cfg $end
$var wire 1 ! clk $end
$var wire 1 " rst_n $end
$var wire 1 # psel_i $end
$var wire 1 $ penable_i $end
$var wire 12 % paddr_i [11:0] $end
$var wire 1 & pwrite_i $end
$var wire 32 ' pwdata_i [31:0] $end
$var reg 1 K pready_o $end
$var reg 32 L prdata_o [31:0] $end
$var reg 32 M ch0_src_addr_o [31:0] $end
$var reg 32 N ch0_dst_addr_o [31:0] $end
$var reg 16 O ch0_byte_len_o [15:0] $end
$var wire 1 P ch0_start_o $end
$var wire 1 Q ch0_done_i $end
$var reg 32 R ch1_src_addr_o [31:0] $end
$var reg 32 S ch1_dst_addr_o [31:0] $end
$var reg 16 T ch1_byte_len_o [15:0] $end
$var wire 1 U ch1_start_o $end
$var wire 1 V ch1_done_i $end
$var reg 32 W ch2_src_addr_o [31:0] $end
$var reg 32 X ch2_dst_addr_o [31:0] $end
$var reg 16 Y ch2_byte_len_o [15:0] $end
$var wire 1 Z ch2_start_o $end
$var wire 1 [ ch2_done_i $end
$var reg 32 \ ch3_src_addr_o [31:0] $end
$var reg 32 ] ch3_dst_addr_o [31:0] $end
$var reg 16 ^ ch3_byte_len_o [15:0] $end
$var wire 1 _ ch3_start_o $end
$var wire 1 ` ch3_done_i $end
$var reg 32 a ch0_src_addr [31:0] $end
$var reg 32 b ch0_dst_addr [31:0] $end
$var reg 16 c ch0_byte_len [15:0] $end
$var reg 32 d ch1_src_addr [31:0] $end
$var reg 32 e ch1_dst_addr [31:0] $end
$var reg 16 f ch1_byte_len [15:0] $end
$var reg 32 g ch2_src_addr [31:0] $end
$var reg 32 h ch2_dst_addr [31:0] $end
$var reg 16 i ch2_byte_len [15:0] $end
$var reg 32 j ch3_src_addr [31:0] $end
$var reg 32 k ch3_dst_addr [31:0] $end
$var reg 16 l ch3_byte_len [15:0] $end
$var wire 1 m wren $end
$var wire 1 n ch0_start $end
$var wire 1 o ch1_start $end
$var wire 1 p ch2_start $end
$var wire 1 q ch3_start $end
$var reg 32 r rdata [31:0] $end
$upscope $end


$scope module u_ar_arbiter $end
$var wire 1 ! clk $end
$var wire 1 " rst_n $end
$var reg 1 s dst_valid_o $end
$var wire 1 B dst_ready_i $end
$var reg 45 t dst_data_o [44:0] $end
$var reg 2 u rotate_ptr [1:0] $end

$scope begin unnamed$$_0 $end
$upscope $end


$scope begin unnamed$$_1 $end
$upscope $end

$upscope $end


$scope module data_fifo $end
$var wire 1 ! clk $end
$var wire 1 " rst_n $end
$var wire 1 I full_o $end
$var wire 1 v wren_i $end
$var wire 37 w wdata_i [36:0] $end
$var wire 1 J empty_o $end
$var wire 1 x rden_i $end
$var wire 37 y rdata_o [36:0] $end
$var reg 1 z full $end
$var reg 1 { full_n $end
$var reg 1 | empty $end
$var reg 1 } empty_n $end
$var reg 5 ~ wrptr [4:0] $end
$var reg 5 "! wrptr_n [4:0] $end
$var reg 5 "" rdptr [4:0] $end
$var reg 5 "# rdptr_n [4:0] $end

$scope begin unnamed$$_0 $end
$upscope $end

$upscope $end


$scope module channel[0].u_initiator $end
$var wire 1 ! clk $end
$var wire 1 " rst_n $end
$var wire 32 "$ src_addr_i [31:0] $end
$var wire 32 "% dst_addr_i [31:0] $end
$var wire 16 "& byte_len_i [15:0] $end
$var wire 1 P start_i $end
$var wire 1 Q done_o $end
$var wire 32 "' aw_fifo_addr_o [31:0] $end
$var wire 4 "( aw_fifo_len_o [3:0] $end
$var wire 3 ") aw_fifo_size_o [2:0] $end
$var wire 2 "* aw_fifo_burst_o [1:0] $end
$var wire 1 "+ aw_fifo_valid_o $end
$var wire 1 ", aw_fifo_ready_i $end
$var wire 1 "- rlast_i $end
$var wire 4 ". wstrb_o [3:0] $end
$var wire 1 "/ wlast_o $end
$var wire 2 9 bresp_i [1:0] $end
$var wire 1 "0 bvalid_i $end
$var wire 1 "1 bready_o $end
$var wire 32 "2 araddr_o [31:0] $end
$var wire 4 "3 arlen_o [3:0] $end
$var wire 3 "4 arsize_o [2:0] $end
$var wire 2 "5 arburst_o [1:0] $end
$var wire 1 "6 arvalid_o $end
$var wire 1 "7 arready_i $end
$var reg 3 "8 state [2:0] $end
$var reg 3 "9 state_n [2:0] $end
$var reg 16 ": outstanding_wr_cnt [15:0] $end
$var reg 16 "; outstanding_wr_cnt_n [15:0] $end
$var reg 32 "< src_addr [31:0] $end
$var reg 32 "= src_addr_n [31:0] $end
$var reg 32 "> dst_addr [31:0] $end
$var reg 32 "? dst_addr_n [31:0] $end
$var reg 16 "@ cnt [15:0] $end
$var reg 16 "A cnt_n [15:0] $end
$var reg 16 "B wcnt [15:0] $end
$var reg 16 "C wcnt_n [15:0] $end
$var reg 1 "D arvalid $end
$var reg 1 "E aw_fifo_valid $end
$var reg 1 "F done $end
$var wire 1 "G outstanding_wr_inc $end
$var wire 1 "H outstanding_wr_dec $end
$upscope $end


$scope module channel[0].aw_fifo $end
$var wire 1 ! clk $end
$var wire 1 " rst_n $end
$var wire 1 "I full_o $end
$var wire 1 "J wren_i $end
$var wire 45 "K wdata_i [44:0] $end
$var wire 1 "L empty_o $end
$var wire 1 "M rden_i $end
$var wire 45 "N rdata_o [44:0] $end
$var reg 1 "O full $end
$var reg 1 "P full_n $end
$var reg 1 "Q empty $end
$var reg 1 "R empty_n $end
$var reg 3 "S wrptr [2:0] $end
$var reg 3 "T wrptr_n [2:0] $end
$var reg 3 "U rdptr [2:0] $end
$var reg 3 "V rdptr_n [2:0] $end

$scope begin unnamed$$_0 $end
$upscope $end

$upscope $end


$scope module channel[1].u_initiator $end
$var wire 1 ! clk $end
$var wire 1 " rst_n $end
$var wire 32 "W src_addr_i [31:0] $end
$var wire 32 "X dst_addr_i [31:0] $end
$var wire 16 "Y byte_len_i [15:0] $end
$var wire 1 U start_i $end
$var wire 1 V done_o $end
$var wire 32 "Z aw_fifo_addr_o [31:0] $end
$var wire 4 "[ aw_fifo_len_o [3:0] $end
$var wire 3 "\ aw_fifo_size_o [2:0] $end
$var wire 2 "] aw_fifo_burst_o [1:0] $end
$var wire 1 "^ aw_fifo_valid_o $end
$var wire 1 "_ aw_fifo_ready_i $end
$var wire 1 "` rlast_i $end
$var wire 4 "a wstrb_o [3:0] $end
$var wire 1 "b wlast_o $end
$var wire 2 9 bresp_i [1:0] $end
$var wire 1 "c bvalid_i $end
$var wire 1 "d bready_o $end
$var wire 32 "e araddr_o [31:0] $end
$var wire 4 "f arlen_o [3:0] $end
$var wire 3 "g arsize_o [2:0] $end
$var wire 2 "h arburst_o [1:0] $end
$var wire 1 "i arvalid_o $end
$var wire 1 "j arready_i $end
$var reg 3 "k state [2:0] $end
$var reg 3 "l state_n [2:0] $end
$var reg 16 "m outstanding_wr_cnt [15:0] $end
$var reg 16 "n outstanding_wr_cnt_n [15:0] $end
$var reg 32 "o src_addr [31:0] $end
$var reg 32 "p src_addr_n [31:0] $end
$var reg 32 "q dst_addr [31:0] $end
$var reg 32 "r dst_addr_n [31:0] $end
$var reg 16 "s cnt [15:0] $end
$var reg 16 "t cnt_n [15:0] $end
$var reg 16 "u wcnt [15:0] $end
$var reg 16 "v wcnt_n [15:0] $end
$var reg 1 "w arvalid $end
$var reg 1 "x aw_fifo_valid $end
$var reg 1 "y done $end
$var wire 1 "z outstanding_wr_inc $end
$var wire 1 "{ outstanding_wr_dec $end
$upscope $end


$scope module channel[1].aw_fifo $end
$var wire 1 ! clk $end
$var wire 1 " rst_n $end
$var wire 1 "| full_o $end
$var wire 1 "} wren_i $end
$var wire 45 "~ wdata_i [44:0] $end
$var wire 1 #! empty_o $end
$var wire 1 #" rden_i $end
$var wire 45 ## rdata_o [44:0] $end
$var reg 1 #$ full $end
$var reg 1 #% full_n $end
$var reg 1 #& empty $end
$var reg 1 #' empty_n $end
$var reg 3 #( wrptr [2:0] $end
$var reg 3 #) wrptr_n [2:0] $end
$var reg 3 #* rdptr [2:0] $end
$var reg 3 #+ rdptr_n [2:0] $end

$scope begin unnamed$$_0 $end
$upscope $end

$upscope $end


$scope module channel[2].u_initiator $end
$var wire 1 ! clk $end
$var wire 1 " rst_n $end
$var wire 32 #, src_addr_i [31:0] $end
$var wire 32 #- dst_addr_i [31:0] $end
$var wire 16 #. byte_len_i [15:0] $end
$var wire 1 Z start_i $end
$var wire 1 [ done_o $end
$var wire 32 #/ aw_fifo_addr_o [31:0] $end
$var wire 4 #0 aw_fifo_len_o [3:0] $end
$var wire 3 #1 aw_fifo_size_o [2:0] $end
$var wire 2 #2 aw_fifo_burst_o [1:0] $end
$var wire 1 #3 aw_fifo_valid_o $end
$var wire 1 #4 aw_fifo_ready_i $end
$var wire 1 #5 rlast_i $end
$var wire 4 #6 wstrb_o [3:0] $end
$var wire 1 #7 wlast_o $end
$var wire 2 9 bresp_i [1:0] $end
$var wire 1 #8 bvalid_i $end
$var wire 1 #9 bready_o $end
$var wire 32 #: araddr_o [31:0] $end
$var wire 4 #; arlen_o [3:0] $end
$var wire 3 #< arsize_o [2:0] $end
$var wire 2 #= arburst_o [1:0] $end
$var wire 1 #> arvalid_o $end
$var wire 1 #? arready_i $end
$var reg 3 #@ state [2:0] $end
$var reg 3 #A state_n [2:0] $end
$var reg 16 #B outstanding_wr_cnt [15:0] $end
$var reg 16 #C outstanding_wr_cnt_n [15:0] $end
$var reg 32 #D src_addr [31:0] $end
$var reg 32 #E src_addr_n [31:0] $end
$var reg 32 #F dst_addr [31:0] $end
$var reg 32 #G dst_addr_n [31:0] $end
$var reg 16 #H cnt [15:0] $end
$var reg 16 #I cnt_n [15:0] $end
$var reg 16 #J wcnt [15:0] $end
$var reg 16 #K wcnt_n [15:0] $end
$var reg 1 #L arvalid $end
$var reg 1 #M aw_fifo_valid $end
$var reg 1 #N done $end
$var wire 1 #O outstanding_wr_inc $end
$var wire 1 #P outstanding_wr_dec $end
$upscope $end


$scope module channel[2].aw_fifo $end
$var wire 1 ! clk $end
$var wire 1 " rst_n $end
$var wire 1 #Q full_o $end
$var wire 1 #R wren_i $end
$var wire 45 #S wdata_i [44:0] $end
$var wire 1 #T empty_o $end
$var wire 1 #U rden_i $end
$var wire 45 #V rdata_o [44:0] $end
$var reg 1 #W full $end
$var reg 1 #X full_n $end
$var reg 1 #Y empty $end
$var reg 1 #Z empty_n $end
$var reg 3 #[ wrptr [2:0] $end
$var reg 3 #\ wrptr_n [2:0] $end
$var reg 3 #] rdptr [2:0] $end
$var reg 3 #^ rdptr_n [2:0] $end

$scope begin unnamed$$_0 $end
$upscope $end

$upscope $end


$scope module channel[3].u_initiator $end
$var wire 1 ! clk $end
$var wire 1 " rst_n $end
$var wire 32 #_ src_addr_i [31:0] $end
$var wire 32 #` dst_addr_i [31:0] $end
$var wire 16 #a byte_len_i [15:0] $end
$var wire 1 _ start_i $end
$var wire 1 ` done_o $end
$var wire 32 #b aw_fifo_addr_o [31:0] $end
$var wire 4 #c aw_fifo_len_o [3:0] $end
$var wire 3 #d aw_fifo_size_o [2:0] $end
$var wire 2 #e aw_fifo_burst_o [1:0] $end
$var wire 1 #f aw_fifo_valid_o $end
$var wire 1 #g aw_fifo_ready_i $end
$var wire 1 #h rlast_i $end
$var wire 4 #i wstrb_o [3:0] $end
$var wire 1 #j wlast_o $end
$var wire 2 9 bresp_i [1:0] $end
$var wire 1 #k bvalid_i $end
$var wire 1 #l bready_o $end
$var wire 32 #m araddr_o [31:0] $end
$var wire 4 #n arlen_o [3:0] $end
$var wire 3 #o arsize_o [2:0] $end
$var wire 2 #p arburst_o [1:0] $end
$var wire 1 #q arvalid_o $end
$var wire 1 #r arready_i $end
$var reg 3 #s state [2:0] $end
$var reg 3 #t state_n [2:0] $end
$var reg 16 #u outstanding_wr_cnt [15:0] $end
$var reg 16 #v outstanding_wr_cnt_n [15:0] $end
$var reg 32 #w src_addr [31:0] $end
$var reg 32 #x src_addr_n [31:0] $end
$var reg 32 #y dst_addr [31:0] $end
$var reg 32 #z dst_addr_n [31:0] $end
$var reg 16 #{ cnt [15:0] $end
$var reg 16 #| cnt_n [15:0] $end
$var reg 16 #} wcnt [15:0] $end
$var reg 16 #~ wcnt_n [15:0] $end
$var reg 1 $! arvalid $end
$var reg 1 $" aw_fifo_valid $end
$var reg 1 $# done $end
$var wire 1 $$ outstanding_wr_inc $end
$var wire 1 $% outstanding_wr_dec $end
$upscope $end


$scope module channel[3].aw_fifo $end
$var wire 1 ! clk $end
$var wire 1 " rst_n $end
$var wire 1 $& full_o $end
$var wire 1 $' wren_i $end
$var wire 45 $( wdata_i [44:0] $end
$var wire 1 $) empty_o $end
$var wire 1 $* rden_i $end
$var wire 45 $+ rdata_o [44:0] $end
$var reg 1 $, full $end
$var reg 1 $- full_n $end
$var reg 1 $. empty $end
$var reg 1 $/ empty_n $end
$var reg 3 $0 wrptr [2:0] $end
$var reg 3 $1 wrptr_n [2:0] $end
$var reg 3 $2 rdptr [2:0] $end
$var reg 3 $3 rdptr_n [2:0] $end

$scope begin unnamed$$_0 $end
$upscope $end

$upscope $end

$upscope $end

$upscope $end

$enddefinitions $end

#0
$dumpvars
0n
0o
0p
0q
x|
x}
xz
x{
0x
0m
0v
bxxxxxxxxxxxxxxxx c
bxxxxxxxxxxxxxxxx O
bxxxxxxxxxxxxxxxxxxxxxxxxxxxxxxxx b
bxxxxxxxxxxxxxxxxxxxxxxxxxxxxxxxx N
bxxxxxxxxxxxxxxxxxxxxxxxxxxxxxxxx a
bxxxxxxxxxxxxxxxxxxxxxxxxxxxxxxxx M
bxxxxxxxxxxxxxxxx f
bxxxxxxxxxxxxxxxx T
bxxxxxxxxxxxxxxxxxxxxxxxxxxxxxxxx e
bxxxxxxxxxxxxxxxxxxxxxxxxxxxxxxxx S
bxxxxxxxxxxxxxxxxxxxxxxxxxxxxxxxx d
bxxxxxxxxxxxxxxxxxxxxxxxxxxxxxxxx R
bxxxxxxxxxxxxxxxx i
bxxxxxxxxxxxxxxxx Y
bxxxxxxxxxxxxxxxxxxxxxxxxxxxxxxxx h
bxxxxxxxxxxxxxxxxxxxxxxxxxxxxxxxx X
bxxxxxxxxxxxxxxxxxxxxxxxxxxxxxxxx g
bxxxxxxxxxxxxxxxxxxxxxxxxxxxxxxxx W
bxxxxxxxxxxxxxxxx l
bxxxxxxxxxxxxxxxx ^
bxxxxxxxxxxxxxxxxxxxxxxxxxxxxxxxx k
bxxxxxxxxxxxxxxxxxxxxxxxxxxxxxxxx ]
bxxxxxxxxxxxxxxxxxxxxxxxxxxxxxxxx j
bxxxxxxxxxxxxxxxxxxxxxxxxxxxxxxxx \
bxxxxxxxxxxxxxxxxxxxxxxxxxxxxxxxx )
bxxxxxxxxxxxxxxxxxxxxxxxxxxxxxxxx r
bxxxxx ""
bxxxxx "#
bxxxxxxxxxxxxxxxxxxxxxxxxxxxxxxxx L
bxxxxx ~
bxxxxx "!
0s
bxxxxxxxxxxxxxxxxxxxxxxxxxxxxxxxxxxxxxxxxxxxxx t
bxx u
0"D
0"E
0"F
0"H
0"G
bxxxxxxxxxxxxxxxx "@
bxxxxxxxxxxxxxxxx "A
bxxxxxxxxxxxxxxxxxxxxxxxxxxxxxxxx ">
bxxxxxxxxxxxxxxxxxxxxxxxxxxxxxxxx "?
bxxxxxxxxxxxxxxxx ":
bxxxxxxxxxxxxxxxx ";
bxxxxxxxxxxxxxxxxxxxxxxxxxxxxxxxx "<
bxxxxxxxxxxxxxxxxxxxxxxxxxxxxxxxx "=
bxxx "8
bxxx "9
bxxxxxxxxxxxxxxxx "B
bxxxxxxxxxxxxxxxx "C
x"Q
x"R
x"O
x"P
bxxx "U
bxxx "V
bxxx "S
bxxx "T
0"w
0"x
0"y
0"{
0"z
bxxxxxxxxxxxxxxxx "s
bxxxxxxxxxxxxxxxx "t
bxxxxxxxxxxxxxxxxxxxxxxxxxxxxxxxx "q
bxxxxxxxxxxxxxxxxxxxxxxxxxxxxxxxx "r
bxxxxxxxxxxxxxxxx "m
bxxxxxxxxxxxxxxxx "n
bxxxxxxxxxxxxxxxxxxxxxxxxxxxxxxxx "o
bxxxxxxxxxxxxxxxxxxxxxxxxxxxxxxxx "p
bxxx "k
bxxx "l
bxxxxxxxxxxxxxxxx "u
bxxxxxxxxxxxxxxxx "v
x#&
x#'
x#$
x#%
bxxx #*
bxxx #+
bxxx #(
bxxx #)
0#L
0#M
0#N
0#P
0#O
bxxxxxxxxxxxxxxxx #H
bxxxxxxxxxxxxxxxx #I
bxxxxxxxxxxxxxxxxxxxxxxxxxxxxxxxx #F
bxxxxxxxxxxxxxxxxxxxxxxxxxxxxxxxx #G
bxxxxxxxxxxxxxxxx #B
bxxxxxxxxxxxxxxxx #C
bxxxxxxxxxxxxxxxxxxxxxxxxxxxxxxxx #D
bxxxxxxxxxxxxxxxxxxxxxxxxxxxxxxxx #E
bxxx #@
bxxx #A
bxxxxxxxxxxxxxxxx #J
bxxxxxxxxxxxxxxxx #K
x#Y
x#Z
x#W
x#X
bxxx #]
bxxx #^
bxxx #[
bxxx #\
0$!
0$"
0$#
0$%
0$$
bxxxxxxxxxxxxxxxx #{
bxxxxxxxxxxxxxxxx #|
bxxxxxxxxxxxxxxxxxxxxxxxxxxxxxxxx #y
bxxxxxxxxxxxxxxxxxxxxxxxxxxxxxxxx #z
bxxxxxxxxxxxxxxxx #u
bxxxxxxxxxxxxxxxx #v
bxxxxxxxxxxxxxxxxxxxxxxxxxxxxxxxx #w
bxxxxxxxxxxxxxxxxxxxxxxxxxxxxxxxx #x
bxxx #s
bxxx #t
bxxxxxxxxxxxxxxxx #}
bxxxxxxxxxxxxxxxx #~
x$.
x$/
x$,
x$-
bxxx $2
bxxx $3
bxxx $0
bxxx $1
bxxxx 2
bxxxxxxxxxxxxxxxxxxxxxxxxxxxxxxxx 3
bxxxx <
bxxxxxxxxxxxxxxxxxxxxxxxxxxxxxxxx =
bxxxx >
bxxx ?
bxx @
x5
bxxxxxxxxxxxxxxxxxxxxxxxxxxxxxxxxxxxx0 w
b0000xxxxxxxxxxxxxxxxxxxxxxxxxxxxxxxxxxxx01001 "K
b0001xxxxxxxxxxxxxxxxxxxxxxxxxxxxxxxxxxxx01001 "~
b0010xxxxxxxxxxxxxxxxxxxxxxxxxxxxxxxxxxxx01001 #S
b0011xxxxxxxxxxxxxxxxxxxxxxxxxxxxxxxxxxxx01001 $(
0!
1K
1(
xJ
xI
0*
1;
0"
b000000000000 %
b00000000000000000000000000000000 '
bxxxx +
bxxxxxxxxxxxxxxxxxxxxxxxxxxxxxxxx ,
bxxxx -
bxxx .
bxx /
b1111 4
bxxxx 8
b00 9
bxxxx C
bxxxxxxxxxxxxxxxxxxxxxxxxxxxxxxxx D
b00 E
0#
0$
0&
x0
01
x6
07
0:
0A
0B
0F
0G
xH
bxxxxxxxxxxxxxxxxxxxxxxxxxxxxxxxxxxxxx y
bxxxxxxxxxxxxxxxxxxxxxxxxxxxxxxxx "$
bxxxxxxxxxxxxxxxxxxxxxxxxxxxxxxxx "%
bxxxxxxxxxxxxxxxx "&
0"+
x"/
1"1
bxxxxxxxxxxxxxxxxxxxxxxxxxxxxxxxx "2
bxxxx "3
b010 "4
b01 "5
x"7
x"I
x"L
bxxxxxxxxxxxxxxxxxxxxxxxxxxxxxxxx "W
bxxxxxxxxxxxxxxxxxxxxxxxxxxxxxxxx "X
bxxxxxxxxxxxxxxxx "Y
0"^
x"b
1"d
bxxxxxxxxxxxxxxxxxxxxxxxxxxxxxxxx "e
bxxxx "f
b010 "g
b01 "h
x"j
x"|
x#!
bxxxxxxxxxxxxxxxxxxxxxxxxxxxxxxxx #,
bxxxxxxxxxxxxxxxxxxxxxxxxxxxxxxxx #-
bxxxxxxxxxxxxxxxx #.
0#3
x#7
1#9
bxxxxxxxxxxxxxxxxxxxxxxxxxxxxxxxx #:
bxxxx #;
b010 #<
b01 #=
x#?
x#Q
x#T
bxxxxxxxxxxxxxxxxxxxxxxxxxxxxxxxx #_
bxxxxxxxxxxxxxxxxxxxxxxxxxxxxxxxx #`
bxxxxxxxxxxxxxxxx #a
0#f
x#j
1#l
bxxxxxxxxxxxxxxxxxxxxxxxxxxxxxxxx #m
bxxxx #n
b010 #o
b01 #p
x#r
x$&
x$)
0"0
0"-
0"J
0"M
0"c
0"`
0"}
0#"
0#8
0#5
0#R
0#U
0#k
0#h
0$'
0$*
0P
0U
0Z
0_
0Q
0V
0[
0`
bxxxxxxxxxxxxxxxxxxxxxxxxxxxxxxxx "'
bxxxx "(
b010 ")
b01 "*
b1111 ".
0"6
bxxxxxxxxxxxxxxxxxxxxxxxxxxxxxxxxxxxxxxxxxxxxx "N
bxxxxxxxxxxxxxxxxxxxxxxxxxxxxxxxx "Z
bxxxx "[
b010 "\
b01 "]
b1111 "a
0"i
bxxxxxxxxxxxxxxxxxxxxxxxxxxxxxxxxxxxxxxxxxxxxx ##
bxxxxxxxxxxxxxxxxxxxxxxxxxxxxxxxx #/
bxxxx #0
b010 #1
b01 #2
b1111 #6
0#>
bxxxxxxxxxxxxxxxxxxxxxxxxxxxxxxxxxxxxxxxxxxxxx #V
bxxxxxxxxxxxxxxxxxxxxxxxxxxxxxxxx #b
bxxxx #c
b010 #d
b01 #e
b1111 #i
0#q
bxxxxxxxxxxxxxxxxxxxxxxxxxxxxxxxxxxxxxxxxxxxxx $+
x",
x"_
x#4
x#g
$end
#10000
1!
b0000 8
b0000 C
0z
0I
1H
1|
1J
06
b00000 ~
b00000 ""
b0000000000000000000000000000000000000 y
05
b0000 2
b00000000000000000000000000000000 3
b00000000000000000000000000000000 a
b00000000000000000000000000000000 M
b00000000000000000000000000000000 "$
b00000000000000000000000000000000 b
b00000000000000000000000000000000 N
b00000000000000000000000000000000 "%
b0000000000000000 c
b0000000000000000 O
b0000000000000000 "&
b00000000000000000000000000000000 d
b00000000000000000000000000000000 R
b00000000000000000000000000000000 "W
b00000000000000000000000000000000 e
b00000000000000000000000000000000 S
b00000000000000000000000000000000 "X
b0000000000000000 f
b0000000000000000 T
b0000000000000000 "Y
b00000000000000000000000000000000 g
b00000000000000000000000000000000 W
b00000000000000000000000000000000 #,
b00000000000000000000000000000000 h
b00000000000000000000000000000000 X
b00000000000000000000000000000000 #-
b0000000000000000 i
b0000000000000000 Y
b0000000000000000 #.
b00000000000000000000000000000000 j
b00000000000000000000000000000000 \
b00000000000000000000000000000000 #_
b00000000000000000000000000000000 k
b00000000000000000000000000000000 ]
b00000000000000000000000000000000 #`
b0000000000000000 l
b0000000000000000 ^
b0000000000000000 #a
b00000000000000000000000000000000 r
b00000000000000000000000000000000 L
b00000000000000000000000000000000 )
b00 u
b000 "8
b0000000000000000 ":
b00000000000000000000000000000000 "<
b00000000000000000000000000000000 "2
b00000000000000000000000000000000 ">
b00000000000000000000000000000000 "'
b0000000000000000 "@
b1111 "3
b1111 "(
b0000000000000000 "B
1"/
0"O
0"I
1"Q
1"L
0",
b000 "S
b000 "U
b000 "k
b0000000000000000 "m
b00000000000000000000000000000000 "o
b00000000000000000000000000000000 "e
b00000000000000000000000000000000 "q
b00000000000000000000000000000000 "Z
b0000000000000000 "s
b1111 "f
b1111 "[
b0000000000000000 "u
1"b
0#$
0"|
1#&
1#!
0"_
b000 #(
b000 #*
b000 #@
b0000000000000000 #B
b00000000000000000000000000000000 #D
b00000000000000000000000000000000 #:
b00000000000000000000000000000000 #F
b00000000000000000000000000000000 #/
b0000000000000000 #H
b1111 #;
b1111 #0
b0000000000000000 #J
1#7
0#W
0#Q
1#Y
1#T
0#4
b000 #[
b000 #]
b000 #s
b0000000000000000 #u
b00000000000000000000000000000000 #w
b00000000000000000000000000000000 #m
b00000000000000000000000000000000 #y
b00000000000000000000000000000000 #b
b0000000000000000 #{
b1111 #n
b1111 #c
b0000000000000000 #}
1#j
0$,
0$&
1$.
1$)
0#g
b000 $0
b000 $2
b0000xxxxxxxxxxxxxxxxxxxxxxxxxxxxxxxx0 w
b000000000000000000000000000000000000111101001 "K
b000100000000000000000000000000000000111101001 "~
b001000000000000000000000000000000000111101001 #S
b001100000000000000000000000000000000111101001 $(
0{
1}
b00000 "#
b00000 "!
1"F
1Q
b0000000000000000 "C
b0000000000000000 "A
b00000000000000000000000000000000 "?
b00000000000000000000000000000000 "=
b000 "9
1"y
1V
b0000000000000000 "v
b0000000000000000 "t
b00000000000000000000000000000000 "r
b00000000000000000000000000000000 "p
b000 "l
1#N
1[
b0000000000000000 #K
b0000000000000000 #I
b00000000000000000000000000000000 #G
b00000000000000000000000000000000 #E
b000 #A
1$#
1`
b0000000000000000 #~
b0000000000000000 #|
b00000000000000000000000000000000 #z
b00000000000000000000000000000000 #x
b000 #t
0"7
0"j
0#?
0#r
b0000000000000000 ";
0"P
1"R
b000 "V
b000 "T
b000000000000000000000000000000000000000000000 "N
b0000000000000000 "n
0#%
1#'
b000 #+
b000 #)
b000000000000000000000000000000000000000000000 ##
b0000000000000000 #C
0#X
1#Z
b000 #^
b000 #\
b000000000000000000000000000000000000000000000 #V
b0000000000000000 #v
0$-
1$/
b000 $3
b000 $1
b000000000000000000000000000000000000000000000 $+
b0000xxxxxxxxxxxxxxxxxxxxxxxxxxxxxxxxxxxx01001 t
b01 @
b010 ?
b0000 <
b000000000000000000000000000000000000111101001 t
b1111 >
b00000000000000000000000000000000 =
b00 /
b000 .
b00000000000000000000000000000000 ,
b0000 +
00
b0000 -
#20000
0!
#30000
1!
#40000
0!
#50000
1!
1"
#60000
0!
#70000
1!
#80000
0!
#90000
1!
#100000
0!
#110000
1!
#120000
0!
#130000
1!
#140000
0!
#150000
1!
#160000
0!
#170000
1!
#180000
0!
#190000
1!
#200000
0!
#210000
1!
#220000
0!
#230000
1!
#240000
0!
#250000
1!
#251000
1#
bxxxxxxxxxxxxxxxxxxxxxxxxxxxxxxxx '
#260000
0!
#270000
1!
b00000000000000010000000100000001 r
b00000000000000010000000100000001 L
b00000000000000010000000100000001 )
#271000
1$
#280000
0!
#290000
1!
0#
0$
bxxxxxxxxxxxx %
x&
#291000
1#
b000100000000 %
1&
b00000000000000000000000000000000 '
#300000
0!
#310000
1!
#311000
1$
1m
#320000
0!
#330000
1!
0#
0$
bxxxxxxxxxxxx %
x&
bxxxxxxxxxxxxxxxxxxxxxxxxxxxxxxxx '
0m
0q
0p
0o
0n
#331000
1#
b001000000000 %
1&
b00000000000000000000000000000000 '
#340000
0!
#350000
1!
#351000
1$
1m
#360000
0!
#370000
1!
0#
0$
bxxxxxxxxxxxx %
x&
bxxxxxxxxxxxxxxxxxxxxxxxxxxxxxxxx '
0m
0q
0p
0o
0n
#371000
1#
b001100000000 %
1&
b00000000000000000000000000000000 '
#380000
0!
#390000
1!
#391000
1$
1m
#400000
0!
#410000
1!
0#
0$
bxxxxxxxxxxxx %
x&
bxxxxxxxxxxxxxxxxxxxxxxxxxxxxxxxx '
0m
0q
0p
0o
0n
#411000
1#
b010000000000 %
1&
b00000000000000000000000000000000 '
#420000
0!
#430000
1!
#431000
1$
1m
#440000
0!
#450000
1!
0#
0$
bxxxxxxxxxxxx %
x&
bxxxxxxxxxxxxxxxxxxxxxxxxxxxxxxxx '
0m
0q
0p
0o
0n
#451000
1#
b000100000000 %
0&
#460000
0!
#470000
1!
b00000000000000000000000000000000 r
b00000000000000000000000000000000 L
b00000000000000000000000000000000 )
#471000
1$
#480000
0!
#490000
1!
0#
0$
bxxxxxxxxxxxx %
x&
#491000
1#
b001000000000 %
0&
#500000
0!
#510000
1!
#511000
1$
#520000
0!
#530000
1!
0#
0$
bxxxxxxxxxxxx %
x&
#531000
1#
b001100000000 %
0&
#540000
0!
#550000
1!
#551000
1$
#560000
0!
#570000
1!
0#
0$
bxxxxxxxxxxxx %
x&
#571000
1#
b010000000000 %
0&
#580000
0!
#590000
1!
#591000
1$
#600000
0!
#610000
1!
0#
0$
bxxxxxxxxxxxx %
x&
#611000
1#
b000100000100 %
1&
b00000000000000100000000000000000 '
#620000
0!
#630000
1!
#631000
1$
1m
#640000
0!
