wave.vcd
$date
	Sat Dec  9 19:15:33 2023
$end

$version
	Synopsys VCS version R-2020.12-SP1-1_Full64
$end

$timescale
	1ps
$end

$comment Csum: 1 33e386b8085e98a4 $end


$scope module DMAC_TOP_TB $end

$scope module u_DUT $end
$var wire 1 ! clk $end
$var wire 1 " rst_n $end
$var wire 1 # psel_i $end
$var wire 1 $ penable_i $end
$var wire 12 % paddr_i [11:0] $end
$var wire 1 & pwrite_i $end
$var wire 32 ' pwdata_i [31:0] $end
$var reg 1 ( pready_o $end
$var reg 32 ) prdata_o [31:0] $end
$var reg 1 * pslverr_o $end
$var wire 4 + awid_o [3:0] $end
$var wire 32 , awaddr_o [31:0] $end
$var wire 4 - awlen_o [3:0] $end
$var wire 3 . awsize_o [2:0] $end
$var wire 2 / awburst_o [1:0] $end
$var wire 1 0 awvalid_o $end
$var wire 1 1 awready_i $end
$var wire 4 2 wid_o [3:0] $end
$var wire 32 3 wdata_o [31:0] $end
$var wire 4 4 wstrb_o [3:0] $end
$var wire 1 5 wlast_o $end
$var wire 1 6 wvalid_o $end
$var wire 1 7 wready_i $end
$var wire 4 8 bid_i [3:0] $end
$var wire 2 9 bresp_i [1:0] $end
$var wire 1 : bvalid_i $end
$var wire 1 ; bready_o $end
$var wire 4 < arid_o [3:0] $end
$var wire 32 = araddr_o [31:0] $end
$var wire 4 > arlen_o [3:0] $end
$var wire 3 ? arsize_o [2:0] $end
$var wire 2 @ arburst_o [1:0] $end
$var wire 1 A arvalid_o $end
$var wire 1 B arready_i $end
$var wire 4 C rid_i [3:0] $end
$var wire 32 D rdata_i [31:0] $end
$var wire 2 E rresp_i [1:0] $end
$var wire 1 F rlast_i $end
$var wire 1 G rvalid_i $end
$var wire 1 H rready_o $end

$scope module u_cfg $end
$var wire 1 ! clk $end
$var wire 1 " rst_n $end
$var wire 1 # psel_i $end
$var wire 1 $ penable_i $end
$var wire 12 % paddr_i [11:0] $end
$var wire 1 & pwrite_i $end
$var wire 32 ' pwdata_i [31:0] $end
$var reg 1 I pready_o $end
$var reg 32 J prdata_o [31:0] $end
$var reg 32 K ch0_src_addr_o [31:0] $end
$var reg 32 L ch0_dst_addr_o [31:0] $end
$var reg 16 M ch0_byte_len_o [15:0] $end
$var wire 1 N ch0_start_o $end
$var wire 1 O ch0_done_i $end
$var reg 32 P ch1_src_addr_o [31:0] $end
$var reg 32 Q ch1_dst_addr_o [31:0] $end
$var reg 16 R ch1_byte_len_o [15:0] $end
$var wire 1 S ch1_start_o $end
$var wire 1 T ch1_done_i $end
$var reg 32 U ch2_src_addr_o [31:0] $end
$var reg 32 V ch2_dst_addr_o [31:0] $end
$var reg 16 W ch2_byte_len_o [15:0] $end
$var wire 1 X ch2_start_o $end
$var wire 1 Y ch2_done_i $end
$var reg 32 Z ch3_src_addr_o [31:0] $end
$var reg 32 [ ch3_dst_addr_o [31:0] $end
$var reg 16 \ ch3_byte_len_o [15:0] $end
$var wire 1 ] ch3_start_o $end
$var wire 1 ^ ch3_done_i $end
$var reg 32 _ ch0_src_addr [31:0] $end
$var reg 32 ` ch0_dst_addr [31:0] $end
$var reg 16 a ch0_byte_len [15:0] $end
$var reg 32 b ch1_src_addr [31:0] $end
$var reg 32 c ch1_dst_addr [31:0] $end
$var reg 16 d ch1_byte_len [15:0] $end
$var reg 32 e ch2_src_addr [31:0] $end
$var reg 32 f ch2_dst_addr [31:0] $end
$var reg 16 g ch2_byte_len [15:0] $end
$var reg 32 h ch3_src_addr [31:0] $end
$var reg 32 i ch3_dst_addr [31:0] $end
$var reg 16 j ch3_byte_len [15:0] $end
$var wire 1 k wren $end
$var reg 32 l rdata [31:0] $end
$var wire 1 m ch0_start $end
$var wire 1 n ch1_start $end
$var wire 1 o ch2_start $end
$var wire 1 p ch3_start $end
$upscope $end


$scope module u_ar_arbiter $end
$var wire 1 ! clk $end
$var wire 1 " rst_n $end
$var reg 1 q dst_valid_o $end
$var wire 1 B dst_ready_i $end
$var reg 45 r dst_data_o [44:0] $end
$var reg 2 s rotate_ptr [1:0] $end

$scope begin unnamed$$_0 $end
$upscope $end


$scope begin unnamed$$_1 $end
$upscope $end

$upscope $end


$scope module u_aw_arbiter $end
$var wire 1 ! clk $end
$var wire 1 " rst_n $end
$var reg 1 t dst_valid_o $end
$var wire 1 1 dst_ready_i $end
$var reg 45 u dst_data_o [44:0] $end
$var reg 2 v rotate_ptr [1:0] $end

$scope begin unnamed$$_0 $end
$upscope $end


$scope begin unnamed$$_1 $end
$upscope $end

$upscope $end


$scope module u_w_arbiter $end
$var wire 1 ! clk $end
$var wire 1 " rst_n $end
$var reg 1 w dst_valid_o $end
$var wire 1 7 dst_ready_i $end
$var reg 41 x dst_data_o [40:0] $end
$var reg 2 y rotate_ptr [1:0] $end

$scope begin unnamed$$_0 $end
$upscope $end


$scope begin unnamed$$_1 $end
$upscope $end

$upscope $end


$scope module channel[0].u_engine $end
$var wire 1 ! clk $end
$var wire 1 " rst_n $end
$var wire 32 z src_addr_i [31:0] $end
$var wire 32 { dst_addr_i [31:0] $end
$var wire 16 | byte_len_i [15:0] $end
$var wire 1 N start_i $end
$var wire 1 O done_o $end
$var wire 32 } awaddr_o [31:0] $end
$var wire 4 ~ awlen_o [3:0] $end
$var wire 3 "! awsize_o [2:0] $end
$var wire 2 "" awburst_o [1:0] $end
$var wire 1 "# awvalid_o $end
$var wire 1 "$ awready_i $end
$var wire 32 "% wdata_o [31:0] $end
$var wire 4 "& wstrb_o [3:0] $end
$var wire 1 "' wlast_o $end
$var wire 1 "( wvalid_o $end
$var wire 1 ") wready_i $end
$var wire 2 9 bresp_i [1:0] $end
$var wire 1 "* bvalid_i $end
$var wire 1 "+ bready_o $end
$var wire 32 ", araddr_o [31:0] $end
$var wire 4 "- arlen_o [3:0] $end
$var wire 3 ". arsize_o [2:0] $end
$var wire 2 "/ arburst_o [1:0] $end
$var wire 1 "0 arvalid_o $end
$var wire 1 "1 arready_i $end
$var wire 32 D rdata_i [31:0] $end
$var wire 2 E rresp_i [1:0] $end
$var wire 1 F rlast_i $end
$var wire 1 "2 rvalid_i $end
$var wire 1 "3 rready_o $end
$var reg 3 "4 state [2:0] $end
$var reg 3 "5 state_n [2:0] $end
$var reg 32 "6 src_addr [31:0] $end
$var reg 32 "7 src_addr_n [31:0] $end
$var reg 32 "8 dst_addr [31:0] $end
$var reg 32 "9 dst_addr_n [31:0] $end
$var reg 16 ": cnt [15:0] $end
$var reg 16 "; cnt_n [15:0] $end
$var reg 4 "< wcnt [3:0] $end
$var reg 4 "= wcnt_n [3:0] $end
$var reg 4 "> wr_cnt [3:0] $end
$var reg 4 "? wr_cnt_n [3:0] $end
$var reg 1 "@ arvalid $end
$var reg 1 "A rready $end
$var reg 1 "B awvalid $end
$var reg 1 "C wvalid $end
$var reg 1 "D wlast $end
$var reg 1 "E done $end
$var wire 1 "F fifo_full $end
$var wire 1 "G fifo_empty $end
$var reg 1 "H fifo_wren $end
$var reg 1 "I fifo_rden $end
$var wire 32 "J fifo_rdata [31:0] $end

$scope module u_fifo $end
$var wire 1 ! clk $end
$var wire 1 " rst_n $end
$var wire 1 "F full_o $end
$var wire 1 "K wren_i $end
$var wire 32 D wdata_i [31:0] $end
$var wire 1 "G empty_o $end
$var wire 1 "L rden_i $end
$var wire 32 "J rdata_o [31:0] $end
$var reg 1 "M full $end
$var reg 1 "N full_n $end
$var reg 1 "O empty $end
$var reg 1 "P empty_n $end
$var reg 5 "Q wrptr [4:0] $end
$var reg 5 "R wrptr_n [4:0] $end
$var reg 5 "S rdptr [4:0] $end
$var reg 5 "T rdptr_n [4:0] $end

$scope begin unnamed$$_0 $end
$upscope $end

$upscope $end

$upscope $end


$scope module channel[1].u_engine $end
$var wire 1 ! clk $end
$var wire 1 " rst_n $end
$var wire 32 "U src_addr_i [31:0] $end
$var wire 32 "V dst_addr_i [31:0] $end
$var wire 16 "W byte_len_i [15:0] $end
$var wire 1 S start_i $end
$var wire 1 T done_o $end
$var wire 32 "X awaddr_o [31:0] $end
$var wire 4 "Y awlen_o [3:0] $end
$var wire 3 "Z awsize_o [2:0] $end
$var wire 2 "[ awburst_o [1:0] $end
$var wire 1 "\ awvalid_o $end
$var wire 1 "] awready_i $end
$var wire 32 "^ wdata_o [31:0] $end
$var wire 4 "_ wstrb_o [3:0] $end
$var wire 1 "` wlast_o $end
$var wire 1 "a wvalid_o $end
$var wire 1 "b wready_i $end
$var wire 2 9 bresp_i [1:0] $end
$var wire 1 "c bvalid_i $end
$var wire 1 "d bready_o $end
$var wire 32 "e araddr_o [31:0] $end
$var wire 4 "f arlen_o [3:0] $end
$var wire 3 "g arsize_o [2:0] $end
$var wire 2 "h arburst_o [1:0] $end
$var wire 1 "i arvalid_o $end
$var wire 1 "j arready_i $end
$var wire 32 D rdata_i [31:0] $end
$var wire 2 E rresp_i [1:0] $end
$var wire 1 F rlast_i $end
$var wire 1 "k rvalid_i $end
$var wire 1 "l rready_o $end
$var reg 3 "m state [2:0] $end
$var reg 3 "n state_n [2:0] $end
$var reg 32 "o src_addr [31:0] $end
$var reg 32 "p src_addr_n [31:0] $end
$var reg 32 "q dst_addr [31:0] $end
$var reg 32 "r dst_addr_n [31:0] $end
$var reg 16 "s cnt [15:0] $end
$var reg 16 "t cnt_n [15:0] $end
$var reg 4 "u wcnt [3:0] $end
$var reg 4 "v wcnt_n [3:0] $end
$var reg 4 "w wr_cnt [3:0] $end
$var reg 4 "x wr_cnt_n [3:0] $end
$var reg 1 "y arvalid $end
$var reg 1 "z rready $end
$var reg 1 "{ awvalid $end
$var reg 1 "| wvalid $end
$var reg 1 "} wlast $end
$var reg 1 "~ done $end
$var wire 1 #! fifo_full $end
$var wire 1 #" fifo_empty $end
$var reg 1 ## fifo_wren $end
$var reg 1 #$ fifo_rden $end
$var wire 32 #% fifo_rdata [31:0] $end

$scope module u_fifo $end
$var wire 1 ! clk $end
$var wire 1 " rst_n $end
$var wire 1 #! full_o $end
$var wire 1 #& wren_i $end
$var wire 32 D wdata_i [31:0] $end
$var wire 1 #" empty_o $end
$var wire 1 #' rden_i $end
$var wire 32 #% rdata_o [31:0] $end
$var reg 1 #( full $end
$var reg 1 #) full_n $end
$var reg 1 #* empty $end
$var reg 1 #+ empty_n $end
$var reg 5 #, wrptr [4:0] $end
$var reg 5 #- wrptr_n [4:0] $end
$var reg 5 #. rdptr [4:0] $end
$var reg 5 #/ rdptr_n [4:0] $end

$scope begin unnamed$$_0 $end
$upscope $end

$upscope $end

$upscope $end


$scope module channel[2].u_engine $end
$var wire 1 ! clk $end
$var wire 1 " rst_n $end
$var wire 32 #0 src_addr_i [31:0] $end
$var wire 32 #1 dst_addr_i [31:0] $end
$var wire 16 #2 byte_len_i [15:0] $end
$var wire 1 X start_i $end
$var wire 1 Y done_o $end
$var wire 32 #3 awaddr_o [31:0] $end
$var wire 4 #4 awlen_o [3:0] $end
$var wire 3 #5 awsize_o [2:0] $end
$var wire 2 #6 awburst_o [1:0] $end
$var wire 1 #7 awvalid_o $end
$var wire 1 #8 awready_i $end
$var wire 32 #9 wdata_o [31:0] $end
$var wire 4 #: wstrb_o [3:0] $end
$var wire 1 #; wlast_o $end
$var wire 1 #< wvalid_o $end
$var wire 1 #= wready_i $end
$var wire 2 9 bresp_i [1:0] $end
$var wire 1 #> bvalid_i $end
$var wire 1 #? bready_o $end
$var wire 32 #@ araddr_o [31:0] $end
$var wire 4 #A arlen_o [3:0] $end
$var wire 3 #B arsize_o [2:0] $end
$var wire 2 #C arburst_o [1:0] $end
$var wire 1 #D arvalid_o $end
$var wire 1 #E arready_i $end
$var wire 32 D rdata_i [31:0] $end
$var wire 2 E rresp_i [1:0] $end
$var wire 1 F rlast_i $end
$var wire 1 #F rvalid_i $end
$var wire 1 #G rready_o $end
$var reg 3 #H state [2:0] $end
$var reg 3 #I state_n [2:0] $end
$var reg 32 #J src_addr [31:0] $end
$var reg 32 #K src_addr_n [31:0] $end
$var reg 32 #L dst_addr [31:0] $end
$var reg 32 #M dst_addr_n [31:0] $end
$var reg 16 #N cnt [15:0] $end
$var reg 16 #O cnt_n [15:0] $end
$var reg 4 #P wcnt [3:0] $end
$var reg 4 #Q wcnt_n [3:0] $end
$var reg 4 #R wr_cnt [3:0] $end
$var reg 4 #S wr_cnt_n [3:0] $end
$var reg 1 #T arvalid $end
$var reg 1 #U rready $end
$var reg 1 #V awvalid $end
$var reg 1 #W wvalid $end
$var reg 1 #X wlast $end
$var reg 1 #Y done $end
$var wire 1 #Z fifo_full $end
$var wire 1 #[ fifo_empty $end
$var reg 1 #\ fifo_wren $end
$var reg 1 #] fifo_rden $end
$var wire 32 #^ fifo_rdata [31:0] $end

$scope module u_fifo $end
$var wire 1 ! clk $end
$var wire 1 " rst_n $end
$var wire 1 #Z full_o $end
$var wire 1 #_ wren_i $end
$var wire 32 D wdata_i [31:0] $end
$var wire 1 #[ empty_o $end
$var wire 1 #` rden_i $end
$var wire 32 #^ rdata_o [31:0] $end
$var reg 1 #a full $end
$var reg 1 #b full_n $end
$var reg 1 #c empty $end
$var reg 1 #d empty_n $end
$var reg 5 #e wrptr [4:0] $end
$var reg 5 #f wrptr_n [4:0] $end
$var reg 5 #g rdptr [4:0] $end
$var reg 5 #h rdptr_n [4:0] $end

$scope begin unnamed$$_0 $end
$upscope $end

$upscope $end

$upscope $end


$scope module channel[3].u_engine $end
$var wire 1 ! clk $end
$var wire 1 " rst_n $end
$var wire 32 #i src_addr_i [31:0] $end
$var wire 32 #j dst_addr_i [31:0] $end
$var wire 16 #k byte_len_i [15:0] $end
$var wire 1 ] start_i $end
$var wire 1 ^ done_o $end
$var wire 32 #l awaddr_o [31:0] $end
$var wire 4 #m awlen_o [3:0] $end
$var wire 3 #n awsize_o [2:0] $end
$var wire 2 #o awburst_o [1:0] $end
$var wire 1 #p awvalid_o $end
$var wire 1 #q awready_i $end
$var wire 32 #r wdata_o [31:0] $end
$var wire 4 #s wstrb_o [3:0] $end
$var wire 1 #t wlast_o $end
$var wire 1 #u wvalid_o $end
$var wire 1 #v wready_i $end
$var wire 2 9 bresp_i [1:0] $end
$var wire 1 #w bvalid_i $end
$var wire 1 #x bready_o $end
$var wire 32 #y araddr_o [31:0] $end
$var wire 4 #z arlen_o [3:0] $end
$var wire 3 #{ arsize_o [2:0] $end
$var wire 2 #| arburst_o [1:0] $end
$var wire 1 #} arvalid_o $end
$var wire 1 #~ arready_i $end
$var wire 32 D rdata_i [31:0] $end
$var wire 2 E rresp_i [1:0] $end
$var wire 1 F rlast_i $end
$var wire 1 $! rvalid_i $end
$var wire 1 $" rready_o $end
$var reg 3 $# state [2:0] $end
$var reg 3 $$ state_n [2:0] $end
$var reg 32 $% src_addr [31:0] $end
$var reg 32 $& src_addr_n [31:0] $end
$var reg 32 $' dst_addr [31:0] $end
$var reg 32 $( dst_addr_n [31:0] $end
$var reg 16 $) cnt [15:0] $end
$var reg 16 $* cnt_n [15:0] $end
$var reg 4 $+ wcnt [3:0] $end
$var reg 4 $, wcnt_n [3:0] $end
$var reg 4 $- wr_cnt [3:0] $end
$var reg 4 $. wr_cnt_n [3:0] $end
$var reg 1 $/ arvalid $end
$var reg 1 $0 rready $end
$var reg 1 $1 awvalid $end
$var reg 1 $2 wvalid $end
$var reg 1 $3 wlast $end
$var reg 1 $4 done $end
$var wire 1 $5 fifo_full $end
$var wire 1 $6 fifo_empty $end
$var reg 1 $7 fifo_wren $end
$var reg 1 $8 fifo_rden $end
$var wire 32 $9 fifo_rdata [31:0] $end

$scope module u_fifo $end
$var wire 1 ! clk $end
$var wire 1 " rst_n $end
$var wire 1 $5 full_o $end
$var wire 1 $: wren_i $end
$var wire 32 D wdata_i [31:0] $end
$var wire 1 $6 empty_o $end
$var wire 1 $; rden_i $end
$var wire 32 $9 rdata_o [31:0] $end
$var reg 1 $< full $end
$var reg 1 $= full_n $end
$var reg 1 $> empty $end
$var reg 1 $? empty_n $end
$var reg 5 $@ wrptr [4:0] $end
$var reg 5 $A wrptr_n [4:0] $end
$var reg 5 $B rdptr [4:0] $end
$var reg 5 $C rdptr_n [4:0] $end

$scope begin unnamed$$_0 $end
$upscope $end

$upscope $end

$upscope $end

$upscope $end

$upscope $end

$enddefinitions $end

#0
$dumpvars
0m
0n
0o
0p
0k
bxxxxxxxxxxxxxxxx a
bxxxxxxxxxxxxxxxx M
bxxxxxxxxxxxxxxxxxxxxxxxxxxxxxxxx `
bxxxxxxxxxxxxxxxxxxxxxxxxxxxxxxxx L
bxxxxxxxxxxxxxxxxxxxxxxxxxxxxxxxx _
bxxxxxxxxxxxxxxxxxxxxxxxxxxxxxxxx K
bxxxxxxxxxxxxxxxx d
bxxxxxxxxxxxxxxxx R
bxxxxxxxxxxxxxxxxxxxxxxxxxxxxxxxx c
bxxxxxxxxxxxxxxxxxxxxxxxxxxxxxxxx Q
bxxxxxxxxxxxxxxxxxxxxxxxxxxxxxxxx b
bxxxxxxxxxxxxxxxxxxxxxxxxxxxxxxxx P
bxxxxxxxxxxxxxxxx g
bxxxxxxxxxxxxxxxx W
bxxxxxxxxxxxxxxxxxxxxxxxxxxxxxxxx f
bxxxxxxxxxxxxxxxxxxxxxxxxxxxxxxxx V
bxxxxxxxxxxxxxxxxxxxxxxxxxxxxxxxx e
bxxxxxxxxxxxxxxxxxxxxxxxxxxxxxxxx U
bxxxxxxxxxxxxxxxx j
bxxxxxxxxxxxxxxxx \
bxxxxxxxxxxxxxxxxxxxxxxxxxxxxxxxx i
bxxxxxxxxxxxxxxxxxxxxxxxxxxxxxxxx [
bxxxxxxxxxxxxxxxxxxxxxxxxxxxxxxxx h
bxxxxxxxxxxxxxxxxxxxxxxxxxxxxxxxx Z
bxxxxxxxxxxxxxxxxxxxxxxxxxxxxxxxx )
bxxxxxxxxxxxxxxxxxxxxxxxxxxxxxxxx l
bxxxxxxxxxxxxxxxxxxxxxxxxxxxxxxxx J
0q
bxxxxxxxxxxxxxxxxxxxxxxxxxxxxxxxxxxxxxxxxxxxxx r
bxx s
0t
bxxxxxxxxxxxxxxxxxxxxxxxxxxxxxxxxxxxxxxxxxxxxx u
bxx v
0w
bxxxxxxxxxxxxxxxxxxxxxxxxxxxxxxxxxxxxxxxxx x
bxx y
0"@
0"B
0"E
x"O
x"P
x"G
x"F
0"I
0"H
x"M
x"N
0"L
0"A
0"D
0"K
0"C
bxxxxxxxxxxxxxxxx ":
bxxxxxxxxxxxxxxxx ";
bxxxxxxxxxxxxxxxxxxxxxxxxxxxxxxxx "8
bxxxxxxxxxxxxxxxxxxxxxxxxxxxxxxxx "9
bxxxxxxxxxxxxxxxxxxxxxxxxxxxxxxxx "J
bxxxxx "S
bxxxxx "T
bxxxxxxxxxxxxxxxxxxxxxxxxxxxxxxxx "6
bxxxxxxxxxxxxxxxxxxxxxxxxxxxxxxxx "7
bxxx "4
bxxx "5
bxxxx "<
bxxxx "=
bxxxx ">
bxxxx "?
bxxxxx "Q
bxxxxx "R
0"y
0"{
0"~
x#*
x#+
x#"
x#!
0#$
0##
x#(
x#)
0#'
0"z
0"}
0#&
0"|
bxxxxxxxxxxxxxxxx "s
bxxxxxxxxxxxxxxxx "t
bxxxxxxxxxxxxxxxxxxxxxxxxxxxxxxxx "q
bxxxxxxxxxxxxxxxxxxxxxxxxxxxxxxxx "r
bxxxxxxxxxxxxxxxxxxxxxxxxxxxxxxxx #%
bxxxxx #.
bxxxxx #/
bxxxxxxxxxxxxxxxxxxxxxxxxxxxxxxxx "o
bxxxxxxxxxxxxxxxxxxxxxxxxxxxxxxxx "p
bxxx "m
bxxx "n
bxxxx "u
bxxxx "v
bxxxx "w
bxxxx "x
bxxxxx #,
bxxxxx #-
0#T
0#V
0#Y
x#c
x#d
x#[
x#Z
0#]
0#\
x#a
x#b
0#`
0#U
0#X
0#_
0#W
bxxxxxxxxxxxxxxxx #N
bxxxxxxxxxxxxxxxx #O
bxxxxxxxxxxxxxxxxxxxxxxxxxxxxxxxx #L
bxxxxxxxxxxxxxxxxxxxxxxxxxxxxxxxx #M
bxxxxxxxxxxxxxxxxxxxxxxxxxxxxxxxx #^
bxxxxx #g
bxxxxx #h
bxxxxxxxxxxxxxxxxxxxxxxxxxxxxxxxx #J
bxxxxxxxxxxxxxxxxxxxxxxxxxxxxxxxx #K
bxxx #H
bxxx #I
bxxxx #P
bxxxx #Q
bxxxx #R
bxxxx #S
bxxxxx #e
bxxxxx #f
0$/
0$1
0$4
x$>
x$?
x$6
x$5
0$8
0$7
x$<
x$=
0$;
0$0
0$3
0$:
0$2
bxxxxxxxxxxxxxxxx $)
bxxxxxxxxxxxxxxxx $*
bxxxxxxxxxxxxxxxxxxxxxxxxxxxxxxxx $'
bxxxxxxxxxxxxxxxxxxxxxxxxxxxxxxxx $(
bxxxxxxxxxxxxxxxxxxxxxxxxxxxxxxxx $9
bxxxxx $B
bxxxxx $C
bxxxxxxxxxxxxxxxxxxxxxxxxxxxxxxxx $%
bxxxxxxxxxxxxxxxxxxxxxxxxxxxxxxxx $&
bxxx $#
bxxx $$
bxxxx $+
bxxxx $,
bxxxx $-
bxxxx $.
bxxxxx $@
bxxxxx $A
bxxxx +
bxxxxxxxxxxxxxxxxxxxxxxxxxxxxxxxx ,
bxxxx -
bxxx .
bxx /
bxxxx 2
bxxxxxxxxxxxxxxxxxxxxxxxxxxxxxxxx 3
bxxxx 4
bxxxx <
bxxxxxxxxxxxxxxxxxxxxxxxxxxxxxxxx =
bxxxx >
bxxx ?
bxx @
x5
0!
1I
1(
0*
1;
0H
0"
b000000000000 %
b00000000000000000000000000000000 '
bxxxx 8
b00 9
bxxxx C
bxxxxxxxxxxxxxxxxxxxxxxxxxxxxxxxx D
b00 E
0#
0$
0&
00
01
06
07
0:
0A
0B
0F
0G
bxxxxxxxxxxxxxxxxxxxxxxxxxxxxxxxx z
bxxxxxxxxxxxxxxxxxxxxxxxxxxxxxxxx {
bxxxxxxxxxxxxxxxx |
bxxxxxxxxxxxxxxxxxxxxxxxxxxxxxxxx }
bxxxx ~
b010 "!
b01 ""
x"$
bxxxxxxxxxxxxxxxxxxxxxxxxxxxxxxxx "%
b1111 "&
0"'
x")
1"+
bxxxxxxxxxxxxxxxxxxxxxxxxxxxxxxxx ",
bxxxx "-
b010 ".
b01 "/
x"1
0"3
bxxxxxxxxxxxxxxxxxxxxxxxxxxxxxxxx "U
bxxxxxxxxxxxxxxxxxxxxxxxxxxxxxxxx "V
bxxxxxxxxxxxxxxxx "W
bxxxxxxxxxxxxxxxxxxxxxxxxxxxxxxxx "X
bxxxx "Y
b010 "Z
b01 "[
x"]
bxxxxxxxxxxxxxxxxxxxxxxxxxxxxxxxx "^
b1111 "_
0"`
x"b
1"d
bxxxxxxxxxxxxxxxxxxxxxxxxxxxxxxxx "e
bxxxx "f
b010 "g
b01 "h
x"j
0"l
bxxxxxxxxxxxxxxxxxxxxxxxxxxxxxxxx #0
bxxxxxxxxxxxxxxxxxxxxxxxxxxxxxxxx #1
bxxxxxxxxxxxxxxxx #2
bxxxxxxxxxxxxxxxxxxxxxxxxxxxxxxxx #3
bxxxx #4
b010 #5
b01 #6
x#8
bxxxxxxxxxxxxxxxxxxxxxxxxxxxxxxxx #9
b1111 #:
0#;
x#=
1#?
bxxxxxxxxxxxxxxxxxxxxxxxxxxxxxxxx #@
bxxxx #A
b010 #B
b01 #C
x#E
0#G
bxxxxxxxxxxxxxxxxxxxxxxxxxxxxxxxx #i
bxxxxxxxxxxxxxxxxxxxxxxxxxxxxxxxx #j
bxxxxxxxxxxxxxxxx #k
bxxxxxxxxxxxxxxxxxxxxxxxxxxxxxxxx #l
bxxxx #m
b010 #n
b01 #o
x#q
bxxxxxxxxxxxxxxxxxxxxxxxxxxxxxxxx #r
b1111 #s
0#t
x#v
1#x
bxxxxxxxxxxxxxxxxxxxxxxxxxxxxxxxx #y
bxxxx #z
b010 #{
b01 #|
x#~
0$"
0"*
0"2
0"c
0"k
0#>
0#F
0#w
0$!
0N
0S
0X
0]
0O
0T
0Y
0^
0"#
0"(
0"0
0"\
0"a
0"i
0#7
0#<
0#D
0#p
0#u
0#}
$end
#10000
1!
b0000 8
b0000 C
b00000000000000000000000000000000 _
b00000000000000000000000000000000 K
b00000000000000000000000000000000 z
b00000000000000000000000000000000 `
b00000000000000000000000000000000 L
b00000000000000000000000000000000 {
b0000000000000000 a
b0000000000000000 M
b0000000000000000 |
b00000000000000000000000000000000 b
b00000000000000000000000000000000 P
b00000000000000000000000000000000 "U
b00000000000000000000000000000000 c
b00000000000000000000000000000000 Q
b00000000000000000000000000000000 "V
b0000000000000000 d
b0000000000000000 R
b0000000000000000 "W
b00000000000000000000000000000000 e
b00000000000000000000000000000000 U
b00000000000000000000000000000000 #0
b00000000000000000000000000000000 f
b00000000000000000000000000000000 V
b00000000000000000000000000000000 #1
b0000000000000000 g
b0000000000000000 W
b0000000000000000 #2
b00000000000000000000000000000000 h
b00000000000000000000000000000000 Z
b00000000000000000000000000000000 #i
b00000000000000000000000000000000 i
b00000000000000000000000000000000 [
b00000000000000000000000000000000 #j
b0000000000000000 j
b0000000000000000 \
b0000000000000000 #k
b00000000000000000000000000000000 l
b00000000000000000000000000000000 J
b00000000000000000000000000000000 )
b00 s
b00 v
b00 y
b000 "4
b00000000000000000000000000000000 "6
b00000000000000000000000000000000 ",
b00000000000000000000000000000000 "8
b00000000000000000000000000000000 }
b0000000000000000 ":
b1111 "-
b1111 ~
b0000 "<
0"M
0"F
1"O
1"G
b00000 "Q
b00000 "S
b00000000000000000000000000000000 "J
b00000000000000000000000000000000 "%
b000 "m
b00000000000000000000000000000000 "o
b00000000000000000000000000000000 "e
b00000000000000000000000000000000 "q
b00000000000000000000000000000000 "X
b0000000000000000 "s
b1111 "f
b1111 "Y
b0000 "u
0#(
0#!
1#*
1#"
b00000 #,
b00000 #.
b00000000000000000000000000000000 #%
b00000000000000000000000000000000 "^
b000 #H
b00000000000000000000000000000000 #J
b00000000000000000000000000000000 #@
b00000000000000000000000000000000 #L
b00000000000000000000000000000000 #3
b0000000000000000 #N
b1111 #A
b1111 #4
b0000 #P
0#a
0#Z
1#c
1#[
b00000 #e
b00000 #g
b00000000000000000000000000000000 #^
b00000000000000000000000000000000 #9
b000 $#
b00000000000000000000000000000000 $%
b00000000000000000000000000000000 #y
b00000000000000000000000000000000 $'
b00000000000000000000000000000000 #l
b0000000000000000 $)
b1111 #z
b1111 #m
b0000 $+
0$<
0$5
1$>
1$6
b00000 $@
b00000 $B
b00000000000000000000000000000000 $9
b00000000000000000000000000000000 #r
1"E
1O
b0000 "=
b0000000000000000 ";
b00000000000000000000000000000000 "9
b00000000000000000000000000000000 "7
b000 "5
1"~
1T
b0000 "v
b0000000000000000 "t
b00000000000000000000000000000000 "r
b00000000000000000000000000000000 "p
b000 "n
1#Y
1Y
b0000 #Q
b0000000000000000 #O
b00000000000000000000000000000000 #M
b00000000000000000000000000000000 #K
b000 #I
1$4
1^
b0000 $,
b0000000000000000 $*
b00000000000000000000000000000000 $(
b00000000000000000000000000000000 $&
b000 $$
0"1
0"j
0#E
0#~
0"$
0"]
0#8
0#q
0")
0"b
0#=
0#v
0"N
1"P
b00000 "T
b00000 "R
0#)
1#+
b00000 #/
b00000 #-
0#b
1#d
b00000 #h
b00000 #f
0$=
1$?
b00000 $C
b00000 $A
b0000xxxxxxxxxxxxxxxxxxxxxxxxxxxxxxxxxxxx01001 r
b01 @
b010 ?
b0000 <
b0000xxxxxxxxxxxxxxxxxxxxxxxxxxxxxxxxxxxx01001 u
b01 /
b010 .
b0000 +
b0000xxxxxxxxxxxxxxxxxxxxxxxxxxxxxxxx11110 x
05
b1111 4
b0000 2
b000000000000000000000000000000000000111101001 r
b1111 >
b00000000000000000000000000000000 =
b000000000000000000000000000000000000111101001 u
b1111 -
b00000000000000000000000000000000 ,
b00000000000000000000000000000000000011110 x
b00000000000000000000000000000000 3
#20000
0!
#30000
1!
#40000
0!
#50000
1!
1"
#60000
0!
#70000
1!
#80000
0!
#90000
1!
#100000
0!
#110000
1!
#120000
0!
#130000
1!
#140000
0!
#150000
1!
#160000
0!
#170000
1!
#180000
0!
#190000
1!
#200000
0!
#210000
1!
#220000
0!
#230000
1!
#240000
0!
#250000
1!
#251000
1#
bxxxxxxxxxxxxxxxxxxxxxxxxxxxxxxxx '
#260000
0!
#270000
1!
b00000000000000100000000100000001 l
b00000000000000100000000100000001 J
b00000000000000100000000100000001 )
#271000
1$
#280000
0!
#290000
1!
0#
0$
bxxxxxxxxxxxx %
x&
#291000
1#
b000100000000 %
1&
b00000000000000000000000000000000 '
#300000
0!
#310000
1!
#311000
1$
1k
#320000
0!
#330000
1!
0#
0$
bxxxxxxxxxxxx %
x&
bxxxxxxxxxxxxxxxxxxxxxxxxxxxxxxxx '
0k
0p
0o
0n
0m
#331000
1#
b001000000000 %
1&
b00000000000000000000000000000000 '
#340000
0!
#350000
1!
#351000
1$
1k
#360000
0!
#370000
1!
0#
0$
bxxxxxxxxxxxx %
x&
bxxxxxxxxxxxxxxxxxxxxxxxxxxxxxxxx '
0k
0p
0o
0n
0m
#371000
1#
b001100000000 %
1&
b00000000000000000000000000000000 '
#380000
0!
#390000
1!
#391000
1$
1k
#400000
0!
#410000
1!
0#
0$
bxxxxxxxxxxxx %
x&
bxxxxxxxxxxxxxxxxxxxxxxxxxxxxxxxx '
0k
0p
0o
0n
0m
#411000
1#
b010000000000 %
1&
b00000000000000000000000000000000 '
#420000
0!
#430000
1!
#431000
1$
1k
#440000
0!
#450000
1!
0#
0$
bxxxxxxxxxxxx %
x&
bxxxxxxxxxxxxxxxxxxxxxxxxxxxxxxxx '
0k
0p
0o
0n
0m
#451000
1#
b000100000000 %
0&
